tt04/encoder.vcd
$comment Generated by Amaranth $end
$date 2023-09-03 22:32:46.778530 $end
$timescale 1 ps $end
$scope module bench $end
$scope module top $end
$var wire 1 ! clk $end
$var wire 1 " rst $end
$var wire 8 # counter $end
$var wire 1 $ a_prev $end
$var wire 1 % a $end
$var wire 1 & b $end
$var wire 1 ' b_prev $end
$upscope $end
$upscope $end
$enddefinitions $end
#0
$dumpvars
0!
0"
b1111111 #
0$
0%
0&
0'
$end
#500000
1!
#1000000
0!
#1500000
1!
#2000000
0!
#2500000
1!
#3000000
0!
#3500000
1!
#4000000
0!
#4500000
1!
#5000000
0!
#5500000
1!
#6000000
0!
#6500000
1!
#7000000
0!
#7500000
1!
#8000000
0!
#8500000
1!
#9000000
0!
#9500000
1!
#10000000
0!
#10500000
1!
1%
#11000000
0!
#11500000
1$
b1111110 #
1!
#12000000
0!
#12500000
1!
#13000000
0!
#13500000
1!
#14000000
0!
#14500000
1!
#15000000
0!
#15500000
1!
1&
#16000000
0!
#16500000
b1111101 #
1!
1'
#17000000
0!
#17500000
1!
#18000000
0!
#18500000
1!
#19000000
0!
#19500000
1!
#20000000
0!
#20500000
1!
0%
#21000000
0!
#21500000
0$
b1111100 #
1!
#22000000
0!
#22500000
1!
#23000000
0!
#23500000
1!
#24000000
0!
#24500000
1!
#25000000
0!
#25500000
1!
0&
#26000000
0!
#26500000
b1111011 #
1!
0'
#27000000
0!
#27500000
1!
#28000000
0!
#28500000
1!
#29000000
0!
#29500000
1!
#30000000
0!
#30500000
1!
1%
#31000000
0!
#31500000
1$
b1111010 #
1!
#32000000
0!
#32500000
1!
#33000000
0!
#33500000
1!
#34000000
0!
#34500000
1!
#35000000
0!
#35500000
1!
1&
#36000000
0!
#36500000
b1111001 #
1!
1'
#37000000
0!
#37500000
1!
#38000000
0!
#38500000
1!
#39000000
0!
#39500000
1!
#40000000
0!
#40500000
1!
0%
#41000000
0!
#41500000
0$
b1111000 #
1!
#42000000
0!
#42500000
1!
#43000000
0!
#43500000
1!
#44000000
0!
#44500000
1!
#45000000
0!
#45500000
1!
0&
#46000000
0!
#46500000
b1110111 #
1!
0'
#47000000
0!
#47500000
1!
#48000000
0!
#48500000
1!
#49000000
0!
#49500000
1!
#50000000
0!
#50500000
1!
1%
#51000000
0!
#51500000
1$
b1110110 #
1!
#52000000
0!
#52500000
1!
#53000000
0!
#53500000
1!
#54000000
0!
#54500000
1!
#55000000
0!
#55500000
1!
1&
#56000000
0!
#56500000
b1110101 #
1!
1'
#57000000
0!
#57500000
1!
#58000000
0!
#58500000
1!
#59000000
0!
#59500000
1!
#60000000
0!
#60500000
1!
0%
#61000000
0!
#61500000
0$
b1110100 #
1!
#62000000
0!
#62500000
1!
#63000000
0!
#63500000
1!
#64000000
0!
#64500000
1!
#65000000
0!
#65500000
1!
0&
#66000000
0!
#66500000
b1110011 #
1!
0'
#67000000
0!
#67500000
1!
#68000000
0!
#68500000
1!
#69000000
0!
#69500000
1!
#70000000
0!
#70500000
1!
1%
#71000000
0!
#71500000
1$
b1110010 #
1!
#72000000
0!
#72500000
1!
#73000000
0!
#73500000
1!
#74000000
0!
#74500000
1!
#75000000
0!
#75500000
1!
1&
#76000000
0!
#76500000
b1110001 #
1!
1'
#77000000
0!
#77500000
1!
#78000000
0!
#78500000
1!
#79000000
0!
#79500000
1!
#80000000
0!
#80500000
1!
0%
#81000000
0!
#81500000
0$
b1110000 #
1!
#82000000
0!
#82500000
1!
#83000000
0!
#83500000
1!
#84000000
0!
#84500000
1!
#85000000
0!
#85500000
1!
0&
#86000000
0!
#86500000
b1101111 #
1!
0'
#87000000
0!
#87500000
1!
#88000000
0!
#88500000
1!
#89000000
0!
#89500000
1!
#90000000
0!
#90500000
1!
1%
#91000000
0!
#91500000
1$
b1101110 #
1!
#92000000
0!
#92500000
1!
#93000000
0!
#93500000
1!
#94000000
0!
#94500000
1!
#95000000
0!
#95500000
1!
1&
#96000000
0!
#96500000
b1101101 #
1!
1'
#97000000
0!
#97500000
1!
#98000000
0!
#98500000
1!
#99000000
0!
#99500000
1!
#100000000
0!
#100500000
1!
0%
#101000000
0!
#101500000
0$
b1101100 #
1!
#102000000
0!
#102500000
1!
#103000000
0!
#103500000
1!
#104000000
0!
#104500000
1!
#105000000
0!
#105500000
1!
0&
#106000000
0!
#106500000
b1101011 #
1!
0'
#107000000
0!
#107500000
1!
#108000000
0!
#108500000
1!
#109000000
0!
#109500000
1!
#110000000
0!
#110500000
1!
1%
#111000000
0!
#111500000
1$
b1101010 #
1!
#112000000
0!
#112500000
1!
#113000000
0!
#113500000
1!
#114000000
0!
#114500000
1!
#115000000
0!
#115500000
1!
#116000000
0!
#116500000
1!
#117000000
0!
#117500000
1!
#118000000
0!
#118500000
1!
#119000000
0!
#119500000
1!
#120000000
0!
#120500000
1!
0%
#121000000
0!
#121500000
0$
b1101011 #
1!
#122000000
0!
#122500000
1!
#123000000
0!
#123500000
1!
#124000000
0!
#124500000
1!
#125000000
0!
#125500000
1!
1&
#126000000
0!
#126500000
b1101100 #
1!
1'
#127000000
0!
#127500000
1!
#128000000
0!
#128500000
1!
#129000000
0!
#129500000
1!
#130000000
0!
#130500000
1!
1%
#131000000
0!
#131500000
1$
b1101101 #
1!
#132000000
0!
#132500000
1!
#133000000
0!
#133500000
1!
#134000000
0!
#134500000
1!
#135000000
0!
#135500000
1!
0&
#136000000
0!
#136500000
b1101110 #
1!
0'
#137000000
0!
#137500000
1!
#138000000
0!
#138500000
1!
#139000000
0!
#139500000
1!
#140000000
0!
#140500000
1!
0%
#141000000
0!
#141500000
0$
b1101111 #
1!
#142000000
0!
#142500000
1!
#143000000
0!
#143500000
1!
#144000000
0!
#144500000
1!
#145000000
0!
#145500000
1!
1&
#146000000
0!
#146500000
b1110000 #
1!
1'
#147000000
0!
#147500000
1!
#148000000
0!
#148500000
1!
#149000000
0!
#149500000
1!
#150000000
0!
#150500000
1!
1%
#151000000
0!
#151500000
1$
b1110001 #
1!
#152000000
0!
#152500000
1!
#153000000
0!
#153500000
1!
#154000000
0!
#154500000
1!
#155000000
0!
#155500000
1!
0&
#156000000
0!
#156500000
b1110010 #
1!
0'
#157000000
0!
#157500000
1!
#158000000
0!
#158500000
1!
#159000000
0!
#159500000
1!
#160000000
0!
#160500000
1!
0%
#161000000
0!
#161500000
0$
b1110011 #
1!
#162000000
0!
#162500000
1!
#163000000
0!
#163500000
1!
#164000000
0!
#164500000
1!
#165000000
0!
#165500000
1!
1&
#166000000
0!
#166500000
b1110100 #
1!
1'
#167000000
0!
#167500000
1!
#168000000
0!
#168500000
1!
#169000000
0!
#169500000
1!
#170000000
0!
#170500000
1!
1%
#171000000
0!
#171500000
1$
b1110101 #
1!
#172000000
0!
#172500000
1!
#173000000
0!
#173500000
1!
#174000000
0!
#174500000
1!
#175000000
0!
#175500000
1!
0&
#176000000
0!
#176500000
b1110110 #
1!
0'
#177000000
0!
#177500000
1!
#178000000
0!
#178500000
1!
#179000000
0!
#179500000
1!
#180000000
0!
#180500000
1!
0%
#181000000
0!
#181500000
0$
b1110111 #
1!
#182000000
0!
#182500000
1!
#183000000
0!
#183500000
1!
#184000000
0!
#184500000
1!
#185000000
0!
#185500000
1!
1&
#186000000
0!
#186500000
b1111000 #
1!
1'
#187000000
0!
#187500000
1!
#188000000
0!
#188500000
1!
#189000000
0!
#189500000
1!
#190000000
0!
#190500000
1!
1%
#191000000
0!
#191500000
1$
b1111001 #
1!
#192000000
0!
#192500000
1!
#193000000
0!
#193500000
1!
#194000000
0!
#194500000
1!
#195000000
0!
#195500000
1!
0&
#196000000
0!
#196500000
b1111010 #
1!
0'
#197000000
0!
#197500000
1!
#198000000
0!
#198500000
1!
#199000000
0!
#199500000
1!
#200000000
0!
#200500000
1!
0%
#201000000
0!
#201500000
0$
b1111011 #
1!
#202000000
0!
#202500000
1!
#203000000
0!
#203500000
1!
#204000000
0!
#204500000
1!
#205000000
0!
#205500000
1!
1&
#206000000
0!
#206500000
b1111100 #
1!
1'
