tt04/encoder.vcd
$comment Generated by Amaranth $end
$date 2023-09-03 18:48:01.888101 $end
$timescale 1 ps $end
$scope module bench $end
$scope module top $end
$var wire 1 ! clk $end
$var wire 1 " rst $end
$var wire 8 # counter $end
$var wire 1 $ a_prev $end
$var wire 1 % a $end
$var wire 1 & b $end
$var wire 1 ' b_prev $end
$upscope $end
$upscope $end
$enddefinitions $end
#0
$dumpvars
0!
0"
b1111111 #
0$
0%
0&
0'
$end
#500000
1!
#1000000
0!
#1500000
1!
#2000000
0!
#2500000
1!
#3000000
0!
#3500000
1!
#4000000
0!
#4500000
1!
#5000000
0!
#5500000
1!
#6000000
0!
#6500000
1!
#7000000
0!
#7500000
1!
#8000000
0!
#8500000
1!
#9000000
0!
#9500000
1!
#10000000
0!
#10500000
1!
1%
#11000000
0!
#11500000
1$
b1111110 #
1!
#12000000
0!
#12500000
1!
#13000000
0!
#13500000
1!
#14000000
0!
#14500000
1!
#15000000
0!
#15500000
1!
1&
#16000000
0!
#16500000
1'
b1111101 #
1!
#17000000
0!
#17500000
1!
#18000000
0!
#18500000
1!
#19000000
0!
#19500000
1!
#20000000
0!
#20500000
1!
0%
#21000000
0!
#21500000
0$
b1111100 #
1!
#22000000
0!
#22500000
1!
#23000000
0!
#23500000
1!
#24000000
0!
#24500000
1!
#25000000
0!
#25500000
1!
0&
#26000000
0!
#26500000
0'
b1111011 #
1!
#27000000
0!
#27500000
1!
#28000000
0!
#28500000
1!
#29000000
0!
#29500000
1!
#30000000
0!
#30500000
1!
1%
#31000000
0!
#31500000
1$
b1111010 #
1!
#32000000
0!
#32500000
1!
#33000000
0!
#33500000
1!
#34000000
0!
#34500000
1!
#35000000
0!
#35500000
1!
1&
#36000000
0!
#36500000
1'
b1111001 #
1!
#37000000
0!
#37500000
1!
#38000000
0!
#38500000
1!
#39000000
0!
#39500000
1!
#40000000
0!
#40500000
1!
0%
#41000000
0!
#41500000
0$
b1111000 #
1!
#42000000
0!
#42500000
1!
#43000000
0!
#43500000
1!
#44000000
0!
#44500000
1!
#45000000
0!
#45500000
1!
0&
#46000000
0!
#46500000
0'
b1110111 #
1!
#47000000
0!
#47500000
1!
#48000000
0!
#48500000
1!
#49000000
0!
#49500000
1!
#50000000
0!
#50500000
1!
1%
#51000000
0!
#51500000
1$
b1110110 #
1!
#52000000
0!
#52500000
1!
#53000000
0!
#53500000
1!
#54000000
0!
#54500000
1!
#55000000
0!
#55500000
1!
1&
#56000000
0!
#56500000
1'
b1110101 #
1!
#57000000
0!
#57500000
1!
#58000000
0!
#58500000
1!
#59000000
0!
#59500000
1!
#60000000
0!
#60500000
1!
0%
#61000000
0!
#61500000
0$
b1110100 #
1!
#62000000
0!
#62500000
1!
#63000000
0!
#63500000
1!
#64000000
0!
#64500000
1!
#65000000
0!
#65500000
1!
0&
#66000000
0!
#66500000
0'
b1110011 #
1!
#67000000
0!
#67500000
1!
#68000000
0!
#68500000
1!
#69000000
0!
#69500000
1!
#70000000
0!
#70500000
1!
1%
#71000000
0!
#71500000
1$
b1110010 #
1!
#72000000
0!
#72500000
1!
#73000000
0!
#73500000
1!
#74000000
0!
#74500000
1!
#75000000
0!
#75500000
1!
1&
#76000000
0!
#76500000
1'
b1110001 #
1!
#77000000
0!
#77500000
1!
#78000000
0!
#78500000
1!
#79000000
0!
#79500000
1!
#80000000
0!
#80500000
1!
0%
#81000000
0!
#81500000
0$
b1110000 #
1!
#82000000
0!
#82500000
1!
#83000000
0!
#83500000
1!
#84000000
0!
#84500000
1!
#85000000
0!
#85500000
1!
0&
#86000000
0!
#86500000
0'
b1101111 #
1!
#87000000
0!
#87500000
1!
#88000000
0!
#88500000
1!
#89000000
0!
#89500000
1!
#90000000
0!
#90500000
1!
1%
#91000000
0!
#91500000
1$
b1101110 #
1!
#92000000
0!
#92500000
1!
#93000000
0!
#93500000
1!
#94000000
0!
#94500000
1!
#95000000
0!
#95500000
1!
1&
#96000000
0!
#96500000
1'
b1101101 #
1!
#97000000
0!
#97500000
1!
#98000000
0!
#98500000
1!
#99000000
0!
#99500000
1!
#100000000
0!
#100500000
1!
0%
#101000000
0!
#101500000
0$
b1101100 #
1!
#102000000
0!
#102500000
1!
#103000000
0!
#103500000
1!
#104000000
0!
#104500000
1!
#105000000
0!
#105500000
1!
0&
#106000000
0!
#106500000
0'
b1101011 #
1!
#107000000
0!
#107500000
1!
#108000000
0!
#108500000
1!
#109000000
0!
#109500000
1!
#110000000
0!
#110500000
1!
1%
#111000000
0!
#111500000
1$
b1101010 #
1!
#112000000
0!
#112500000
1!
#113000000
0!
#113500000
1!
#114000000
0!
#114500000
1!
#115000000
0!
#115500000
1!
1&
#116000000
0!
#116500000
1'
b1101001 #
1!
#117000000
0!
#117500000
1!
#118000000
0!
#118500000
1!
#119000000
0!
#119500000
1!
#120000000
0!
#120500000
1!
0%
#121000000
0!
#121500000
0$
b1101000 #
1!
#122000000
0!
#122500000
1!
#123000000
0!
#123500000
1!
#124000000
0!
#124500000
1!
#125000000
0!
#125500000
1!
0&
#126000000
0!
#126500000
0'
b1100111 #
1!
#127000000
0!
#127500000
1!
#128000000
0!
#128500000
1!
#129000000
0!
#129500000
1!
#130000000
0!
#130500000
1!
1%
#131000000
0!
#131500000
1$
b1100110 #
1!
#132000000
0!
#132500000
1!
#133000000
0!
#133500000
1!
#134000000
0!
#134500000
1!
#135000000
0!
#135500000
1!
1&
#136000000
0!
#136500000
1'
b1100101 #
1!
#137000000
0!
#137500000
1!
#138000000
0!
#138500000
1!
#139000000
0!
#139500000
1!
#140000000
0!
#140500000
1!
0%
#141000000
0!
#141500000
0$
b1100100 #
1!
#142000000
0!
#142500000
1!
#143000000
0!
#143500000
1!
#144000000
0!
#144500000
1!
#145000000
0!
#145500000
1!
0&
#146000000
0!
#146500000
0'
b1100011 #
1!
#147000000
0!
#147500000
1!
#148000000
0!
#148500000
1!
#149000000
0!
#149500000
1!
#150000000
0!
#150500000
1!
1%
#151000000
0!
#151500000
1$
b1100010 #
1!
#152000000
0!
#152500000
1!
#153000000
0!
#153500000
1!
#154000000
0!
#154500000
1!
#155000000
0!
#155500000
1!
1&
#156000000
0!
#156500000
1'
b1100001 #
1!
#157000000
0!
#157500000
1!
#158000000
0!
#158500000
1!
#159000000
0!
#159500000
1!
#160000000
0!
#160500000
1!
0%
#161000000
0!
#161500000
0$
b1100000 #
1!
#162000000
0!
#162500000
1!
#163000000
0!
#163500000
1!
#164000000
0!
#164500000
1!
#165000000
0!
#165500000
1!
0&
#166000000
0!
#166500000
0'
b1011111 #
1!
#167000000
0!
#167500000
1!
#168000000
0!
#168500000
1!
#169000000
0!
#169500000
1!
#170000000
0!
#170500000
1!
1%
#171000000
0!
#171500000
1$
b1011110 #
1!
#172000000
0!
#172500000
1!
#173000000
0!
#173500000
1!
#174000000
0!
#174500000
1!
#175000000
0!
#175500000
1!
1&
#176000000
0!
#176500000
1'
b1011101 #
1!
#177000000
0!
#177500000
1!
#178000000
0!
#178500000
1!
#179000000
0!
#179500000
1!
#180000000
0!
#180500000
1!
0%
#181000000
0!
#181500000
0$
b1011100 #
1!
#182000000
0!
#182500000
1!
#183000000
0!
#183500000
1!
#184000000
0!
#184500000
1!
#185000000
0!
#185500000
1!
0&
#186000000
0!
#186500000
0'
b1011011 #
1!
#187000000
0!
#187500000
1!
#188000000
0!
#188500000
1!
#189000000
0!
#189500000
1!
#190000000
0!
#190500000
1!
1%
#191000000
0!
#191500000
1$
b1011010 #
1!
#192000000
0!
#192500000
1!
#193000000
0!
#193500000
1!
#194000000
0!
#194500000
1!
#195000000
0!
#195500000
1!
1&
#196000000
0!
#196500000
1'
b1011001 #
1!
#197000000
0!
#197500000
1!
#198000000
0!
#198500000
1!
#199000000
0!
#199500000
1!
#200000000
0!
#200500000
1!
0%
#201000000
0!
#201500000
0$
b1011000 #
1!
#202000000
0!
#202500000
1!
#203000000
0!
#203500000
1!
#204000000
0!
#204500000
1!
#205000000
0!
#205500000
1!
0&
#206000000
0!
#206500000
0'
b1010111 #
1!
#207000000
0!
#207500000
1!
#208000000
0!
#208500000
1!
#209000000
0!
#209500000
1!
#210000000
0!
#210500000
1!
1%
#211000000
0!
#211500000
1$
b1010110 #
1!
#212000000
0!
#212500000
1!
#213000000
0!
#213500000
1!
#214000000
0!
#214500000
1!
#215000000
0!
#215500000
1!
#216000000
0!
#216500000
1!
#217000000
0!
#217500000
1!
#218000000
0!
#218500000
1!
#219000000
0!
#219500000
1!
#220000000
0!
#220500000
1!
0%
#221000000
0!
#221500000
0$
b1010111 #
1!
#222000000
0!
#222500000
1!
#223000000
0!
#223500000
1!
#224000000
0!
#224500000
1!
#225000000
0!
#225500000
1!
1&
#226000000
0!
#226500000
1'
b1011000 #
1!
#227000000
0!
#227500000
1!
#228000000
0!
#228500000
1!
#229000000
0!
#229500000
1!
#230000000
0!
#230500000
1!
1%
#231000000
0!
#231500000
1$
b1011001 #
1!
#232000000
0!
#232500000
1!
#233000000
0!
#233500000
1!
#234000000
0!
#234500000
1!
#235000000
0!
#235500000
1!
0&
#236000000
0!
#236500000
0'
b1011010 #
1!
#237000000
0!
#237500000
1!
#238000000
0!
#238500000
1!
#239000000
0!
#239500000
1!
#240000000
0!
#240500000
1!
0%
#241000000
0!
#241500000
0$
b1011011 #
1!
#242000000
0!
#242500000
1!
#243000000
0!
#243500000
1!
#244000000
0!
#244500000
1!
#245000000
0!
#245500000
1!
1&
#246000000
0!
#246500000
1'
b1011100 #
1!
#247000000
0!
#247500000
1!
#248000000
0!
#248500000
1!
#249000000
0!
#249500000
1!
#250000000
0!
#250500000
1!
1%
#251000000
0!
#251500000
1$
b1011101 #
1!
#252000000
0!
#252500000
1!
#253000000
0!
#253500000
1!
#254000000
0!
#254500000
1!
#255000000
0!
#255500000
1!
0&
#256000000
0!
#256500000
0'
b1011110 #
1!
#257000000
0!
#257500000
1!
#258000000
0!
#258500000
1!
#259000000
0!
#259500000
1!
#260000000
0!
#260500000
1!
0%
#261000000
0!
#261500000
0$
b1011111 #
1!
#262000000
0!
#262500000
1!
#263000000
0!
#263500000
1!
#264000000
0!
#264500000
1!
#265000000
0!
#265500000
1!
1&
#266000000
0!
#266500000
1'
b1100000 #
1!
#267000000
0!
#267500000
1!
#268000000
0!
#268500000
1!
#269000000
0!
#269500000
1!
#270000000
0!
#270500000
1!
1%
#271000000
0!
#271500000
1$
b1100001 #
1!
#272000000
0!
#272500000
1!
#273000000
0!
#273500000
1!
#274000000
0!
#274500000
1!
#275000000
0!
#275500000
1!
0&
#276000000
0!
#276500000
0'
b1100010 #
1!
#277000000
0!
#277500000
1!
#278000000
0!
#278500000
1!
#279000000
0!
#279500000
1!
#280000000
0!
#280500000
1!
0%
#281000000
0!
#281500000
0$
b1100011 #
1!
#282000000
0!
#282500000
1!
#283000000
0!
#283500000
1!
#284000000
0!
#284500000
1!
#285000000
0!
#285500000
1!
1&
#286000000
0!
#286500000
1'
b1100100 #
1!
#287000000
0!
#287500000
1!
#288000000
0!
#288500000
1!
#289000000
0!
#289500000
1!
#290000000
0!
#290500000
1!
1%
#291000000
0!
#291500000
1$
b1100101 #
1!
#292000000
0!
#292500000
1!
#293000000
0!
#293500000
1!
#294000000
0!
#294500000
1!
#295000000
0!
#295500000
1!
0&
#296000000
0!
#296500000
0'
b1100110 #
1!
#297000000
0!
#297500000
1!
#298000000
0!
#298500000
1!
#299000000
0!
#299500000
1!
#300000000
0!
#300500000
1!
0%
#301000000
0!
#301500000
0$
b1100111 #
1!
#302000000
0!
#302500000
1!
#303000000
0!
#303500000
1!
#304000000
0!
#304500000
1!
#305000000
0!
#305500000
1!
1&
#306000000
0!
#306500000
1'
b1101000 #
1!
#307000000
0!
#307500000
1!
#308000000
0!
#308500000
1!
#309000000
0!
#309500000
1!
#310000000
0!
#310500000
1!
1%
#311000000
0!
#311500000
1$
b1101001 #
1!
#312000000
0!
#312500000
1!
#313000000
0!
#313500000
1!
#314000000
0!
#314500000
1!
#315000000
0!
#315500000
1!
0&
#316000000
0!
#316500000
0'
b1101010 #
1!
#317000000
0!
#317500000
1!
#318000000
0!
#318500000
1!
#319000000
0!
#319500000
1!
#320000000
0!
#320500000
1!
0%
#321000000
0!
#321500000
0$
b1101011 #
1!
#322000000
0!
#322500000
1!
#323000000
0!
#323500000
1!
#324000000
0!
#324500000
1!
#325000000
0!
#325500000
1!
1&
#326000000
0!
#326500000
1'
b1101100 #
1!
#327000000
0!
#327500000
1!
#328000000
0!
#328500000
1!
#329000000
0!
#329500000
1!
#330000000
0!
#330500000
1!
1%
#331000000
0!
#331500000
1$
b1101101 #
1!
#332000000
0!
#332500000
1!
#333000000
0!
#333500000
1!
#334000000
0!
#334500000
1!
#335000000
0!
#335500000
1!
0&
#336000000
0!
#336500000
0'
b1101110 #
1!
#337000000
0!
#337500000
1!
#338000000
0!
#338500000
1!
#339000000
0!
#339500000
1!
#340000000
0!
#340500000
1!
0%
#341000000
0!
#341500000
0$
b1101111 #
1!
#342000000
0!
#342500000
1!
#343000000
0!
#343500000
1!
#344000000
0!
#344500000
1!
#345000000
0!
#345500000
1!
1&
#346000000
0!
#346500000
1'
b1110000 #
1!
#347000000
0!
#347500000
1!
#348000000
0!
#348500000
1!
#349000000
0!
#349500000
1!
#350000000
0!
#350500000
1!
1%
#351000000
0!
#351500000
1$
b1110001 #
1!
#352000000
0!
#352500000
1!
#353000000
0!
#353500000
1!
#354000000
0!
#354500000
1!
#355000000
0!
#355500000
1!
0&
#356000000
0!
#356500000
0'
b1110010 #
1!
#357000000
0!
#357500000
1!
#358000000
0!
#358500000
1!
#359000000
0!
#359500000
1!
#360000000
0!
#360500000
1!
0%
#361000000
0!
#361500000
0$
b1110011 #
1!
#362000000
0!
#362500000
1!
#363000000
0!
#363500000
1!
#364000000
0!
#364500000
1!
#365000000
0!
#365500000
1!
1&
#366000000
0!
#366500000
1'
b1110100 #
1!
#367000000
0!
#367500000
1!
#368000000
0!
#368500000
1!
#369000000
0!
#369500000
1!
#370000000
0!
#370500000
1!
1%
#371000000
0!
#371500000
1$
b1110101 #
1!
#372000000
0!
#372500000
1!
#373000000
0!
#373500000
1!
#374000000
0!
#374500000
1!
#375000000
0!
#375500000
1!
0&
#376000000
0!
#376500000
0'
b1110110 #
1!
#377000000
0!
#377500000
1!
#378000000
0!
#378500000
1!
#379000000
0!
#379500000
1!
#380000000
0!
#380500000
1!
0%
#381000000
0!
#381500000
0$
b1110111 #
1!
#382000000
0!
#382500000
1!
#383000000
0!
#383500000
1!
#384000000
0!
#384500000
1!
#385000000
0!
#385500000
1!
1&
#386000000
0!
#386500000
1'
b1111000 #
1!
#387000000
0!
#387500000
1!
#388000000
0!
#388500000
1!
#389000000
0!
#389500000
1!
#390000000
0!
#390500000
1!
1%
#391000000
0!
#391500000
1$
b1111001 #
1!
#392000000
0!
#392500000
1!
#393000000
0!
#393500000
1!
#394000000
0!
#394500000
1!
#395000000
0!
#395500000
1!
0&
#396000000
0!
#396500000
0'
b1111010 #
1!
#397000000
0!
#397500000
1!
#398000000
0!
#398500000
1!
#399000000
0!
#399500000
1!
#400000000
0!
#400500000
1!
0%
#401000000
0!
#401500000
0$
b1111011 #
1!
#402000000
0!
#402500000
1!
#403000000
0!
#403500000
1!
#404000000
0!
#404500000
1!
#405000000
0!
#405500000
1!
1&
#406000000
0!
#406500000
1'
b1111100 #
1!
