tt04/tt04.vcd
$comment Generated by Amaranth $end
$date 2023-09-03 21:47:12.528655 $end
$timescale 1 ps $end
$scope module bench $end
$scope module top $end
$var wire 1 ! clk $end
$var wire 8 " io_in $end
$var wire 1 # rst $end
$var wire 1 $ a $end
$var wire 1 % b $end
$var wire 8 & dutycycle $end
$var wire 8 ' counter $end
$var wire 8 ( io_out $end
$var wire 1 ) output $end
$var wire 7 * dummy $end
$scope module encoder $end
$var wire 1 ! clk $end
$var wire 1 # rst $end
$var wire 1 $ a $end
$var wire 1 % b $end
$var wire 8 ' counter $end
$var wire 1 , a_prev $end
$var wire 1 - b_prev $end
$upscope $end
$scope module pwm $end
$var wire 1 ! clk $end
$var wire 1 # rst $end
$var wire 8 & dutycycle $end
$var wire 1 ) output $end
$var wire 8 + counter $end
$upscope $end
$upscope $end
$upscope $end
$enddefinitions $end
#0
$dumpvars
0!
b0 "
0#
0$
1%
b1111111 &
b1111111 '
b0 (
0)
b0 *
b0 +
0,
0-
$end
#500000
b10000000 &
b10000000 '
1-
b1 (
b1 +
1)
#1000000
b10 +
1!
#1500000
0!
#2000000
b11 +
1!
#2500000
0!
#3000000
b100 +
1!
#3500000
0!
#4000000
b101 +
1!
#4500000
0!
#5000000
b110 +
1!
#5500000
0!
#6000000
b111 +
1!
#6500000
0!
#7000000
b1000 +
1!
#7500000
0!
#8000000
b1001 +
1!
#8500000
0!
#9000000
b1010 +
1!
#9500000
0!
#10000000
b1011 +
1!
#10500000
0!
#11000000
b1100 +
1!
#11500000
0!
#12000000
b1101 +
1!
#12500000
0!
#13000000
b1110 +
1!
#13500000
0!
#14000000
b1111 +
1!
#14500000
0!
#15000000
b10000 +
1!
#15500000
0!
#16000000
b10001 +
1!
#16500000
0!
#17000000
b10010 +
1!
#17500000
0!
#18000000
b10011 +
1!
#18500000
0!
#19000000
b10100 +
1!
#19500000
0!
#20000000
b10101 +
1!
#20500000
0!
#21000000
b10110 +
1!
#21500000
0!
#22000000
b10111 +
1!
#22500000
0!
#23000000
b11000 +
1!
#23500000
0!
#24000000
b11001 +
1!
#24500000
0!
#25000000
b11010 +
1!
0!
b1 "
#25500000
b11011 +
1!
#26000000
0!
#26500000
b11100 +
1!
#27000000
0!
#27500000
b11101 +
1!
#28000000
0!
#28500000
b11110 +
1!
#29000000
0!
#29500000
b11111 +
1!
0!
b11 "
#30000000
b100000 +
1!
#30500000
0!
#31000000
b100001 +
1!
#31500000
0!
#32000000
b100010 +
1!
#32500000
0!
#33000000
b100011 +
1!
#33500000
0!
#34000000
b100100 +
1!
0!
b0 "
#34500000
b100101 +
1!
#35000000
0!
#35500000
b100110 +
1!
#36000000
0!
#36500000
b100111 +
1!
#37000000
0!
#37500000
b101000 +
1!
#38000000
0!
#38500000
b101001 +
1!
0!
b10 "
#39000000
b101010 +
1!
#39500000
0!
#40000000
b101011 +
1!
#40500000
0!
#41000000
b101100 +
1!
#41500000
0!
#42000000
b101101 +
1!
#42500000
0!
#43000000
b101110 +
1!
0!
b1 "
#43500000
b101111 +
1!
#44000000
0!
#44500000
b110000 +
1!
#45000000
0!
#45500000
b110001 +
1!
#46000000
0!
#46500000
b110010 +
1!
#47000000
0!
#47500000
b110011 +
1!
0!
b11 "
#48000000
b110100 +
1!
#48500000
0!
#49000000
b110101 +
1!
#49500000
0!
#50000000
b110110 +
1!
#50500000
0!
#51000000
b110111 +
1!
#51500000
0!
#52000000
b111000 +
1!
0!
b0 "
#52500000
b111001 +
1!
#53000000
0!
#53500000
b111010 +
1!
#54000000
0!
#54500000
b111011 +
1!
#55000000
0!
#55500000
b111100 +
1!
#56000000
0!
#56500000
b111101 +
1!
0!
b10 "
#57000000
b111110 +
1!
#57500000
0!
#58000000
b111111 +
1!
#58500000
0!
#59000000
b1000000 +
1!
#59500000
0!
#60000000
b1000001 +
1!
#60500000
0!
#61000000
b1000010 +
1!
