sim/doubledabble.vcd
$comment Generated by Amaranth $end
$date 2023-12-03 18:06:07.599142 $end
$timescale 1 ps $end
$scope module bench $end
$scope module top $end
$var wire 1 ! clk $end
$var wire 1 " rst $end
$var wire 3 # shifts $end
$var wire 6 $ prevInput $end
$var wire 14 % scratchpad_bits $end
$var wire 1 & addOnes $end
$var wire 1 ' addTens $end
$var wire 1 ( done $end
$var wire 4 ) outLo $end
$var wire 4 * outHi $end
$var wire 6 + i $end
$upscope $end
$upscope $end
$enddefinitions $end
#0
$dumpvars
0!
0"
b0 #
b0 $
b0 %
0&
0'
0(
b0 )
b0 *
b0 +
$end
#500000
1&
1!
#1000000
0!
#1500000
1'
1!
#2000000
0!
#2500000
0&
b1 #
0'
1!
#3000000
0!
#3500000
1&
1!
#4000000
0!
#4500000
1'
1!
#5000000
0!
#5500000
0&
b10 #
0'
1!
#6000000
0!
#6500000
1&
1!
#7000000
0!
#7500000
1'
1!
#8000000
0!
#8500000
0&
b11 #
0'
1!
#9000000
0!
#9500000
1&
1!
#10000000
0!
#10500000
1'
1!
#11000000
0!
#11500000
0&
b100 #
0'
1!
#12000000
0!
#12500000
1&
1!
#13000000
0!
#13500000
1'
1!
#14000000
0!
#14500000
0&
b101 #
0'
1!
#15000000
0!
#15500000
1&
1!
#16000000
0!
#16500000
1'
1!
#17000000
0!
#17500000
0&
b110 #
0'
1!
#18000000
0!
#18500000
b0 #
1!
1(
#19000000
0!
#19500000
1!
b1 +
#20000000
0!
#20500000
1!
0(
#21000000
0!
#21500000
b1 %
1!
b1 $
#22000000
0!
#22500000
1&
1!
#23000000
0!
#23500000
1'
1!
#24000000
0!
#24500000
0&
b10 %
b1 #
0'
1!
#25000000
0!
#25500000
1&
1!
#26000000
0!
#26500000
1'
1!
#27000000
0!
#27500000
0&
b100 %
b10 #
0'
1!
#28000000
0!
#28500000
1&
1!
#29000000
0!
#29500000
1'
1!
#30000000
0!
#30500000
0&
b1000 %
b11 #
0'
1!
#31000000
0!
#31500000
1&
1!
#32000000
0!
#32500000
1'
1!
#33000000
0!
#33500000
0&
b10000 %
b100 #
0'
1!
#34000000
0!
#34500000
1&
1!
#35000000
0!
#35500000
1'
1!
#36000000
0!
#36500000
0&
b100000 %
b101 #
0'
1!
#37000000
0!
#37500000
1&
1!
#38000000
0!
#38500000
1'
1!
#39000000
0!
#39500000
0&
b1000000 %
b110 #
0'
1!
#40000000
0!
#40500000
b1 )
b0 #
1!
1(
#41000000
0!
#41500000
1!
b10 +
#42000000
0!
#42500000
1!
0(
#43000000
0!
#43500000
b10 %
1!
b10 $
#44000000
0!
#44500000
1&
1!
#45000000
0!
#45500000
1'
1!
#46000000
0!
#46500000
0&
b100 %
b1 #
0'
1!
#47000000
0!
#47500000
1&
1!
#48000000
0!
#48500000
1'
1!
#49000000
0!
#49500000
0&
b1000 %
b10 #
0'
1!
#50000000
0!
#50500000
1&
1!
#51000000
0!
#51500000
1'
1!
#52000000
0!
#52500000
0&
b10000 %
b11 #
0'
1!
#53000000
0!
#53500000
1&
1!
#54000000
0!
#54500000
1'
1!
#55000000
0!
#55500000
0&
b100000 %
b100 #
0'
1!
#56000000
0!
#56500000
1&
1!
#57000000
0!
#57500000
1'
1!
#58000000
0!
#58500000
0&
b1000000 %
b101 #
0'
1!
#59000000
0!
#59500000
1&
1!
#60000000
0!
#60500000
1'
1!
#61000000
0!
#61500000
0&
b10000000 %
b110 #
0'
1!
#62000000
0!
#62500000
b10 )
b0 #
1!
1(
#63000000
0!
#63500000
1!
b11 +
#64000000
0!
#64500000
1!
0(
#65000000
0!
#65500000
b11 %
1!
b11 $
#66000000
0!
#66500000
1&
1!
#67000000
0!
#67500000
1'
1!
#68000000
0!
#68500000
0&
b110 %
b1 #
0'
1!
#69000000
0!
#69500000
1&
1!
#70000000
0!
#70500000
1'
1!
#71000000
0!
#71500000
0&
b1100 %
b10 #
0'
1!
#72000000
0!
#72500000
1&
1!
#73000000
0!
#73500000
1'
1!
#74000000
0!
#74500000
0&
b11000 %
b11 #
0'
1!
#75000000
0!
#75500000
1&
1!
#76000000
0!
#76500000
1'
1!
#77000000
0!
#77500000
0&
b110000 %
b100 #
0'
1!
#78000000
0!
#78500000
1&
1!
#79000000
0!
#79500000
1'
1!
#80000000
0!
#80500000
0&
b1100000 %
b101 #
0'
1!
#81000000
0!
#81500000
1&
1!
#82000000
0!
#82500000
1'
1!
#83000000
0!
#83500000
0&
b11000000 %
b110 #
0'
1!
#84000000
0!
#84500000
b11 )
b0 #
1!
1(
#85000000
0!
#85500000
1!
b100 +
#86000000
0!
#86500000
1!
0(
#87000000
0!
#87500000
b100 %
1!
b100 $
#88000000
0!
#88500000
1&
1!
#89000000
0!
#89500000
1'
1!
#90000000
0!
#90500000
0&
b1000 %
b1 #
0'
1!
#91000000
0!
#91500000
1&
1!
#92000000
0!
#92500000
1'
1!
#93000000
0!
#93500000
0&
b10000 %
b10 #
0'
1!
#94000000
0!
#94500000
1&
1!
#95000000
0!
#95500000
1'
1!
#96000000
0!
#96500000
0&
b100000 %
b11 #
0'
1!
#97000000
0!
#97500000
1&
1!
#98000000
0!
#98500000
1'
1!
#99000000
0!
#99500000
0&
b1000000 %
b100 #
0'
1!
#100000000
0!
#100500000
1&
1!
#101000000
0!
#101500000
1'
1!
#102000000
0!
#102500000
0&
b10000000 %
b101 #
0'
1!
#103000000
0!
#103500000
1&
1!
#104000000
0!
#104500000
1'
1!
#105000000
0!
#105500000
0&
b100000000 %
b110 #
0'
1!
#106000000
0!
#106500000
b100 )
b0 #
1!
1(
#107000000
0!
#107500000
1!
b101 +
#108000000
0!
#108500000
1!
0(
#109000000
0!
#109500000
b101 %
1!
b101 $
#110000000
0!
#110500000
1&
1!
#111000000
0!
#111500000
1'
1!
#112000000
0!
#112500000
0&
b1010 %
b1 #
0'
1!
#113000000
0!
#113500000
1&
1!
#114000000
0!
#114500000
1'
1!
#115000000
0!
#115500000
0&
b10100 %
b10 #
0'
1!
#116000000
0!
#116500000
1&
1!
#117000000
0!
#117500000
1'
1!
#118000000
0!
#118500000
0&
b101000 %
b11 #
0'
1!
#119000000
0!
#119500000
1&
1!
#120000000
0!
#120500000
1'
1!
#121000000
0!
#121500000
0&
b1010000 %
b100 #
0'
1!
#122000000
0!
#122500000
1&
1!
#123000000
0!
#123500000
1'
1!
#124000000
0!
#124500000
0&
b10100000 %
b101 #
0'
1!
#125000000
0!
#125500000
1&
1!
#126000000
0!
#126500000
1'
1!
#127000000
0!
#127500000
0&
b101000000 %
b110 #
0'
1!
#128000000
0!
#128500000
b101 )
b0 #
1!
1(
#129000000
0!
#129500000
1!
b110 +
#130000000
0!
#130500000
1!
0(
#131000000
0!
#131500000
b110 %
1!
b110 $
#132000000
0!
#132500000
1&
1!
#133000000
0!
#133500000
1'
1!
#134000000
0!
#134500000
0&
b1100 %
b1 #
0'
1!
#135000000
0!
#135500000
1&
1!
#136000000
0!
#136500000
1'
1!
#137000000
0!
#137500000
0&
b11000 %
b10 #
0'
1!
#138000000
0!
#138500000
1&
1!
#139000000
0!
#139500000
1'
1!
#140000000
0!
#140500000
0&
b110000 %
b11 #
0'
1!
#141000000
0!
#141500000
1&
1!
#142000000
0!
#142500000
1'
1!
#143000000
0!
#143500000
0&
b1100000 %
b100 #
0'
1!
#144000000
0!
#144500000
1&
1!
#145000000
0!
#145500000
1'
1!
#146000000
0!
#146500000
0&
b11000000 %
b101 #
0'
1!
#147000000
0!
#147500000
1&
1!
#148000000
0!
#148500000
1'
1!
#149000000
0!
#149500000
0&
b110000000 %
b110 #
0'
1!
#150000000
0!
#150500000
b110 )
b0 #
1!
1(
#151000000
0!
#151500000
1!
b111 +
#152000000
0!
#152500000
1!
0(
#153000000
0!
#153500000
b111 %
1!
b111 $
#154000000
0!
#154500000
1&
1!
#155000000
0!
#155500000
1'
1!
#156000000
0!
#156500000
0&
b1110 %
b1 #
0'
1!
#157000000
0!
#157500000
1&
1!
#158000000
0!
#158500000
1'
1!
#159000000
0!
#159500000
0&
b11100 %
b10 #
0'
1!
#160000000
0!
#160500000
1&
1!
#161000000
0!
#161500000
1'
1!
#162000000
0!
#162500000
0&
b111000 %
b11 #
0'
1!
#163000000
0!
#163500000
1&
1!
#164000000
0!
#164500000
1'
1!
#165000000
0!
#165500000
0&
b1110000 %
b100 #
0'
1!
#166000000
0!
#166500000
1&
1!
#167000000
0!
#167500000
1'
1!
#168000000
0!
#168500000
0&
b11100000 %
b101 #
0'
1!
#169000000
0!
#169500000
1&
1!
#170000000
0!
#170500000
1'
1!
#171000000
0!
#171500000
0&
b111000000 %
b110 #
0'
1!
#172000000
0!
#172500000
b111 )
b0 #
1!
1(
#173000000
0!
#173500000
1!
b1000 +
#174000000
0!
#174500000
1!
0(
#175000000
0!
#175500000
b1000 %
1!
b1000 $
#176000000
0!
#176500000
1&
1!
#177000000
0!
#177500000
1'
1!
#178000000
0!
#178500000
0&
b10000 %
b1 #
0'
1!
#179000000
0!
#179500000
1&
1!
#180000000
0!
#180500000
1'
1!
#181000000
0!
#181500000
0&
b100000 %
b10 #
0'
1!
#182000000
0!
#182500000
1&
1!
#183000000
0!
#183500000
1'
1!
#184000000
0!
#184500000
0&
b1000000 %
b11 #
0'
1!
#185000000
0!
#185500000
1&
1!
#186000000
0!
#186500000
1'
1!
#187000000
0!
#187500000
0&
b10000000 %
b100 #
0'
1!
#188000000
0!
#188500000
1&
1!
#189000000
0!
#189500000
1'
1!
#190000000
0!
#190500000
0&
b100000000 %
b101 #
0'
1!
#191000000
0!
#191500000
1&
1!
#192000000
0!
#192500000
1'
1!
#193000000
0!
#193500000
0&
b1000000000 %
b110 #
0'
1!
#194000000
0!
#194500000
b1000 )
b0 #
1!
1(
#195000000
0!
#195500000
1!
b1001 +
#196000000
0!
#196500000
1!
0(
#197000000
0!
#197500000
b1001 %
1!
b1001 $
#198000000
0!
#198500000
1&
1!
#199000000
0!
#199500000
1'
1!
#200000000
0!
#200500000
0&
b10010 %
b1 #
0'
1!
#201000000
0!
#201500000
1&
1!
#202000000
0!
#202500000
1'
1!
#203000000
0!
#203500000
0&
b100100 %
b10 #
0'
1!
#204000000
0!
#204500000
1&
1!
#205000000
0!
#205500000
1'
1!
#206000000
0!
#206500000
0&
b1001000 %
b11 #
0'
1!
#207000000
0!
#207500000
1&
1!
#208000000
0!
#208500000
1'
1!
#209000000
0!
#209500000
0&
b10010000 %
b100 #
0'
1!
#210000000
0!
#210500000
1&
1!
#211000000
0!
#211500000
1'
1!
#212000000
0!
#212500000
0&
b100100000 %
b101 #
0'
1!
#213000000
0!
#213500000
1&
1!
#214000000
0!
#214500000
1'
1!
#215000000
0!
#215500000
0&
b1001000000 %
b110 #
0'
1!
#216000000
0!
#216500000
b1001 )
b0 #
1!
1(
#217000000
0!
#217500000
1!
b1010 +
#218000000
0!
#218500000
1!
0(
#219000000
0!
#219500000
b1010 %
1!
b1010 $
#220000000
0!
#220500000
1&
1!
#221000000
0!
#221500000
1'
1!
#222000000
0!
#222500000
0&
b10100 %
b1 #
0'
1!
#223000000
0!
#223500000
1&
1!
#224000000
0!
#224500000
1'
1!
#225000000
0!
#225500000
0&
b101000 %
b10 #
0'
1!
#226000000
0!
#226500000
1&
1!
#227000000
0!
#227500000
1'
1!
#228000000
0!
#228500000
0&
b1010000 %
b11 #
0'
1!
#229000000
0!
#229500000
1&
1!
#230000000
0!
#230500000
1'
1!
#231000000
0!
#231500000
0&
b10100000 %
b100 #
0'
1!
#232000000
0!
#232500000
1&
1!
#233000000
0!
#233500000
1'
1!
#234000000
0!
#234500000
0&
b101000000 %
b101 #
0'
1!
#235000000
0!
#235500000
b1000000000 %
1&
1!
#236000000
0!
#236500000
1'
1!
#237000000
0!
#237500000
0&
b10000000000 %
b110 #
0'
1!
#238000000
0!
#238500000
b0 )
1(
b1 *
b0 #
1!
#239000000
0!
#239500000
1!
b1011 +
#240000000
0!
#240500000
1!
0(
#241000000
0!
#241500000
b1011 %
1!
b1011 $
#242000000
0!
#242500000
1&
1!
#243000000
0!
#243500000
1'
1!
#244000000
0!
#244500000
0&
b10110 %
b1 #
0'
1!
#245000000
0!
#245500000
1&
1!
#246000000
0!
#246500000
1'
1!
#247000000
0!
#247500000
0&
b101100 %
b10 #
0'
1!
#248000000
0!
#248500000
1&
1!
#249000000
0!
#249500000
1'
1!
#250000000
0!
#250500000
0&
b1011000 %
b11 #
0'
1!
#251000000
0!
#251500000
1&
1!
#252000000
0!
#252500000
1'
1!
#253000000
0!
#253500000
0&
b10110000 %
b100 #
0'
1!
#254000000
0!
#254500000
1&
1!
#255000000
0!
#255500000
1'
1!
#256000000
0!
#256500000
0&
b101100000 %
b101 #
0'
1!
#257000000
0!
#257500000
b1000100000 %
1&
1!
#258000000
0!
#258500000
1'
1!
#259000000
0!
#259500000
0&
b10001000000 %
b110 #
0'
1!
#260000000
0!
#260500000
b1 )
b0 #
1!
1(
#261000000
0!
#261500000
1!
b1100 +
#262000000
0!
#262500000
1!
0(
#263000000
0!
#263500000
b1100 %
1!
b1100 $
#264000000
0!
#264500000
1&
1!
#265000000
0!
#265500000
1'
1!
#266000000
0!
#266500000
0&
b11000 %
b1 #
0'
1!
#267000000
0!
#267500000
1&
1!
#268000000
0!
#268500000
1'
1!
#269000000
0!
#269500000
0&
b110000 %
b10 #
0'
1!
#270000000
0!
#270500000
1&
1!
#271000000
0!
#271500000
1'
1!
#272000000
0!
#272500000
0&
b1100000 %
b11 #
0'
1!
#273000000
0!
#273500000
1&
1!
#274000000
0!
#274500000
1'
1!
#275000000
0!
#275500000
0&
b11000000 %
b100 #
0'
1!
#276000000
0!
#276500000
1&
1!
#277000000
0!
#277500000
1'
1!
#278000000
0!
#278500000
0&
b110000000 %
b101 #
0'
1!
#279000000
0!
#279500000
b1001000000 %
1&
1!
#280000000
0!
#280500000
1'
1!
#281000000
0!
#281500000
0&
b10010000000 %
b110 #
0'
1!
#282000000
0!
#282500000
b10 )
b0 #
1!
1(
#283000000
0!
#283500000
1!
b1101 +
#284000000
0!
#284500000
1!
0(
#285000000
0!
#285500000
b1101 %
1!
b1101 $
#286000000
0!
#286500000
1&
1!
#287000000
0!
#287500000
1'
1!
#288000000
0!
#288500000
0&
b11010 %
b1 #
0'
1!
#289000000
0!
#289500000
1&
1!
#290000000
0!
#290500000
1'
1!
#291000000
0!
#291500000
0&
b110100 %
b10 #
0'
1!
#292000000
0!
#292500000
1&
1!
#293000000
0!
#293500000
1'
1!
#294000000
0!
#294500000
0&
b1101000 %
b11 #
0'
1!
#295000000
0!
#295500000
1&
1!
#296000000
0!
#296500000
1'
1!
#297000000
0!
#297500000
0&
b11010000 %
b100 #
0'
1!
#298000000
0!
#298500000
1&
1!
#299000000
0!
#299500000
1'
1!
#300000000
0!
#300500000
0&
b110100000 %
b101 #
0'
1!
#301000000
0!
#301500000
b1001100000 %
1&
1!
#302000000
0!
#302500000
1'
1!
#303000000
0!
#303500000
0&
b10011000000 %
b110 #
0'
1!
#304000000
0!
#304500000
b11 )
b0 #
1!
1(
#305000000
0!
#305500000
1!
b1110 +
#306000000
0!
#306500000
1!
0(
#307000000
0!
#307500000
b1110 %
1!
b1110 $
#308000000
0!
#308500000
1&
1!
#309000000
0!
#309500000
1'
1!
#310000000
0!
#310500000
0&
b11100 %
b1 #
0'
1!
#311000000
0!
#311500000
1&
1!
#312000000
0!
#312500000
1'
1!
#313000000
0!
#313500000
0&
b111000 %
b10 #
0'
1!
#314000000
0!
#314500000
1&
1!
#315000000
0!
#315500000
1'
1!
#316000000
0!
#316500000
0&
b1110000 %
b11 #
0'
1!
#317000000
0!
#317500000
1&
1!
#318000000
0!
#318500000
1'
1!
#319000000
0!
#319500000
0&
b11100000 %
b100 #
0'
1!
#320000000
0!
#320500000
1&
1!
#321000000
0!
#321500000
1'
1!
#322000000
0!
#322500000
0&
b111000000 %
b101 #
0'
1!
#323000000
0!
#323500000
b1010000000 %
1&
1!
#324000000
0!
#324500000
1'
1!
#325000000
0!
#325500000
0&
b10100000000 %
b110 #
0'
1!
#326000000
0!
#326500000
b100 )
b0 #
1!
1(
#327000000
0!
#327500000
1!
b1111 +
#328000000
0!
#328500000
1!
0(
#329000000
0!
#329500000
b1111 %
1!
b1111 $
#330000000
0!
#330500000
1&
1!
#331000000
0!
#331500000
1'
1!
#332000000
0!
#332500000
0&
b11110 %
b1 #
0'
1!
#333000000
0!
#333500000
1&
1!
#334000000
0!
#334500000
1'
1!
#335000000
0!
#335500000
0&
b111100 %
b10 #
0'
1!
#336000000
0!
#336500000
1&
1!
#337000000
0!
#337500000
1'
1!
#338000000
0!
#338500000
0&
b1111000 %
b11 #
0'
1!
#339000000
0!
#339500000
1&
1!
#340000000
0!
#340500000
1'
1!
#341000000
0!
#341500000
0&
b11110000 %
b100 #
0'
1!
#342000000
0!
#342500000
1&
1!
#343000000
0!
#343500000
1'
1!
#344000000
0!
#344500000
0&
b111100000 %
b101 #
0'
1!
#345000000
0!
#345500000
b1010100000 %
1&
1!
#346000000
0!
#346500000
1'
1!
#347000000
0!
#347500000
0&
b10101000000 %
b110 #
0'
1!
#348000000
0!
#348500000
b101 )
b0 #
1!
1(
#349000000
0!
#349500000
1!
b10000 +
#350000000
0!
#350500000
1!
0(
#351000000
0!
#351500000
b10000 %
1!
b10000 $
#352000000
0!
#352500000
1&
1!
#353000000
0!
#353500000
1'
1!
#354000000
0!
#354500000
0&
b100000 %
b1 #
0'
1!
#355000000
0!
#355500000
1&
1!
#356000000
0!
#356500000
1'
1!
#357000000
0!
#357500000
0&
b1000000 %
b10 #
0'
1!
#358000000
0!
#358500000
1&
1!
#359000000
0!
#359500000
1'
1!
#360000000
0!
#360500000
0&
b10000000 %
b11 #
0'
1!
#361000000
0!
#361500000
1&
1!
#362000000
0!
#362500000
1'
1!
#363000000
0!
#363500000
0&
b100000000 %
b100 #
0'
1!
#364000000
0!
#364500000
1&
1!
#365000000
0!
#365500000
1'
1!
#366000000
0!
#366500000
0&
b1000000000 %
b101 #
0'
1!
#367000000
0!
#367500000
b1011000000 %
1&
1!
#368000000
0!
#368500000
1'
1!
#369000000
0!
#369500000
0&
b10110000000 %
b110 #
0'
1!
#370000000
0!
#370500000
b110 )
b0 #
1!
1(
#371000000
0!
#371500000
1!
b10001 +
#372000000
0!
#372500000
1!
0(
#373000000
0!
#373500000
b10001 %
1!
b10001 $
#374000000
0!
#374500000
1&
1!
#375000000
0!
#375500000
1'
1!
#376000000
0!
#376500000
0&
b100010 %
b1 #
0'
1!
#377000000
0!
#377500000
1&
1!
#378000000
0!
#378500000
1'
1!
#379000000
0!
#379500000
0&
b1000100 %
b10 #
0'
1!
#380000000
0!
#380500000
1&
1!
#381000000
0!
#381500000
1'
1!
#382000000
0!
#382500000
0&
b10001000 %
b11 #
0'
1!
#383000000
0!
#383500000
1&
1!
#384000000
0!
#384500000
1'
1!
#385000000
0!
#385500000
0&
b100010000 %
b100 #
0'
1!
#386000000
0!
#386500000
1&
1!
#387000000
0!
#387500000
1'
1!
#388000000
0!
#388500000
0&
b1000100000 %
b101 #
0'
1!
#389000000
0!
#389500000
b1011100000 %
1&
1!
#390000000
0!
#390500000
1'
1!
#391000000
0!
#391500000
0&
b10111000000 %
b110 #
0'
1!
#392000000
0!
#392500000
b111 )
b0 #
1!
1(
#393000000
0!
#393500000
1!
b10010 +
#394000000
0!
#394500000
1!
0(
#395000000
0!
#395500000
b10010 %
1!
b10010 $
#396000000
0!
#396500000
1&
1!
#397000000
0!
#397500000
1'
1!
#398000000
0!
#398500000
0&
b100100 %
b1 #
0'
1!
#399000000
0!
#399500000
1&
1!
#400000000
0!
#400500000
1'
1!
#401000000
0!
#401500000
0&
b1001000 %
b10 #
0'
1!
#402000000
0!
#402500000
1&
1!
#403000000
0!
#403500000
1'
1!
#404000000
0!
#404500000
0&
b10010000 %
b11 #
0'
1!
#405000000
0!
#405500000
1&
1!
#406000000
0!
#406500000
1'
1!
#407000000
0!
#407500000
0&
b100100000 %
b100 #
0'
1!
#408000000
0!
#408500000
1&
1!
#409000000
0!
#409500000
1'
1!
#410000000
0!
#410500000
0&
b1001000000 %
b101 #
0'
1!
#411000000
0!
#411500000
b1100000000 %
1&
1!
#412000000
0!
#412500000
1'
1!
#413000000
0!
#413500000
0&
b11000000000 %
b110 #
0'
1!
#414000000
0!
#414500000
b1000 )
b0 #
1!
1(
#415000000
0!
#415500000
1!
b10011 +
#416000000
0!
#416500000
1!
0(
#417000000
0!
#417500000
b10011 %
1!
b10011 $
#418000000
0!
#418500000
1&
1!
#419000000
0!
#419500000
1'
1!
#420000000
0!
#420500000
0&
b100110 %
b1 #
0'
1!
#421000000
0!
#421500000
1&
1!
#422000000
0!
#422500000
1'
1!
#423000000
0!
#423500000
0&
b1001100 %
b10 #
0'
1!
#424000000
0!
#424500000
1&
1!
#425000000
0!
#425500000
1'
1!
#426000000
0!
#426500000
0&
b10011000 %
b11 #
0'
1!
#427000000
0!
#427500000
1&
1!
#428000000
0!
#428500000
1'
1!
#429000000
0!
#429500000
0&
b100110000 %
b100 #
0'
1!
#430000000
0!
#430500000
1&
1!
#431000000
0!
#431500000
1'
1!
#432000000
0!
#432500000
0&
b1001100000 %
b101 #
0'
1!
#433000000
0!
#433500000
b1100100000 %
1&
1!
#434000000
0!
#434500000
1'
1!
#435000000
0!
#435500000
0&
b11001000000 %
b110 #
0'
1!
#436000000
0!
#436500000
b1001 )
b0 #
1!
1(
#437000000
0!
#437500000
1!
b10100 +
#438000000
0!
#438500000
1!
0(
#439000000
0!
#439500000
b10100 %
1!
b10100 $
#440000000
0!
#440500000
1&
1!
#441000000
0!
#441500000
1'
1!
#442000000
0!
#442500000
0&
b101000 %
b1 #
0'
1!
#443000000
0!
#443500000
1&
1!
#444000000
0!
#444500000
1'
1!
#445000000
0!
#445500000
0&
b1010000 %
b10 #
0'
1!
#446000000
0!
#446500000
1&
1!
#447000000
0!
#447500000
1'
1!
#448000000
0!
#448500000
0&
b10100000 %
b11 #
0'
1!
#449000000
0!
#449500000
1&
1!
#450000000
0!
#450500000
1'
1!
#451000000
0!
#451500000
0&
b101000000 %
b100 #
0'
1!
#452000000
0!
#452500000
b1000000000 %
1&
1!
#453000000
0!
#453500000
1'
1!
#454000000
0!
#454500000
0&
b10000000000 %
b101 #
0'
1!
#455000000
0!
#455500000
1&
1!
#456000000
0!
#456500000
1'
1!
#457000000
0!
#457500000
0&
b100000000000 %
b110 #
0'
1!
#458000000
0!
#458500000
b0 )
1(
b10 *
b0 #
1!
#459000000
0!
#459500000
1!
b10101 +
#460000000
0!
#460500000
1!
0(
#461000000
0!
#461500000
b10101 %
1!
b10101 $
#462000000
0!
#462500000
1&
1!
#463000000
0!
#463500000
1'
1!
#464000000
0!
#464500000
0&
b101010 %
b1 #
0'
1!
#465000000
0!
#465500000
1&
1!
#466000000
0!
#466500000
1'
1!
#467000000
0!
#467500000
0&
b1010100 %
b10 #
0'
1!
#468000000
0!
#468500000
1&
1!
#469000000
0!
#469500000
1'
1!
#470000000
0!
#470500000
0&
b10101000 %
b11 #
0'
1!
#471000000
0!
#471500000
1&
1!
#472000000
0!
#472500000
1'
1!
#473000000
0!
#473500000
0&
b101010000 %
b100 #
0'
1!
#474000000
0!
#474500000
b1000010000 %
1&
1!
#475000000
0!
#475500000
1'
1!
#476000000
0!
#476500000
0&
b10000100000 %
b101 #
0'
1!
#477000000
0!
#477500000
1&
1!
#478000000
0!
#478500000
1'
1!
#479000000
0!
#479500000
0&
b100001000000 %
b110 #
0'
1!
#480000000
0!
#480500000
b1 )
b0 #
1!
1(
#481000000
0!
#481500000
1!
b10110 +
#482000000
0!
#482500000
1!
0(
#483000000
0!
#483500000
b10110 %
1!
b10110 $
#484000000
0!
#484500000
1&
1!
#485000000
0!
#485500000
1'
1!
#486000000
0!
#486500000
0&
b101100 %
b1 #
0'
1!
#487000000
0!
#487500000
1&
1!
#488000000
0!
#488500000
1'
1!
#489000000
0!
#489500000
0&
b1011000 %
b10 #
0'
1!
#490000000
0!
#490500000
1&
1!
#491000000
0!
#491500000
1'
1!
#492000000
0!
#492500000
0&
b10110000 %
b11 #
0'
1!
#493000000
0!
#493500000
1&
1!
#494000000
0!
#494500000
1'
1!
#495000000
0!
#495500000
0&
b101100000 %
b100 #
0'
1!
#496000000
0!
#496500000
b1000100000 %
1&
1!
#497000000
0!
#497500000
1'
1!
#498000000
0!
#498500000
0&
b10001000000 %
b101 #
0'
1!
#499000000
0!
#499500000
1&
1!
#500000000
0!
#500500000
1'
1!
#501000000
0!
#501500000
0&
b100010000000 %
b110 #
0'
1!
#502000000
0!
#502500000
b10 )
b0 #
1!
1(
#503000000
0!
#503500000
1!
b10111 +
#504000000
0!
#504500000
1!
0(
#505000000
0!
#505500000
b10111 %
1!
b10111 $
#506000000
0!
#506500000
1&
1!
#507000000
0!
#507500000
1'
1!
#508000000
0!
#508500000
0&
b101110 %
b1 #
0'
1!
#509000000
0!
#509500000
1&
1!
#510000000
0!
#510500000
1'
1!
#511000000
0!
#511500000
0&
b1011100 %
b10 #
0'
1!
#512000000
0!
#512500000
1&
1!
#513000000
0!
#513500000
1'
1!
#514000000
0!
#514500000
0&
b10111000 %
b11 #
0'
1!
#515000000
0!
#515500000
1&
1!
#516000000
0!
#516500000
1'
1!
#517000000
0!
#517500000
0&
b101110000 %
b100 #
0'
1!
#518000000
0!
#518500000
b1000110000 %
1&
1!
#519000000
0!
#519500000
1'
1!
#520000000
0!
#520500000
0&
b10001100000 %
b101 #
0'
1!
#521000000
0!
#521500000
1&
1!
#522000000
0!
#522500000
1'
1!
#523000000
0!
#523500000
0&
b100011000000 %
b110 #
0'
1!
#524000000
0!
#524500000
b11 )
b0 #
1!
1(
#525000000
0!
#525500000
1!
b11000 +
#526000000
0!
#526500000
1!
0(
#527000000
0!
#527500000
b11000 %
1!
b11000 $
#528000000
0!
#528500000
1&
1!
#529000000
0!
#529500000
1'
1!
#530000000
0!
#530500000
0&
b110000 %
b1 #
0'
1!
#531000000
0!
#531500000
1&
1!
#532000000
0!
#532500000
1'
1!
#533000000
0!
#533500000
0&
b1100000 %
b10 #
0'
1!
#534000000
0!
#534500000
1&
1!
#535000000
0!
#535500000
1'
1!
#536000000
0!
#536500000
0&
b11000000 %
b11 #
0'
1!
#537000000
0!
#537500000
1&
1!
#538000000
0!
#538500000
1'
1!
#539000000
0!
#539500000
0&
b110000000 %
b100 #
0'
1!
#540000000
0!
#540500000
b1001000000 %
1&
1!
#541000000
0!
#541500000
1'
1!
#542000000
0!
#542500000
0&
b10010000000 %
b101 #
0'
1!
#543000000
0!
#543500000
1&
1!
#544000000
0!
#544500000
1'
1!
#545000000
0!
#545500000
0&
b100100000000 %
b110 #
0'
1!
#546000000
0!
#546500000
b100 )
b0 #
1!
1(
#547000000
0!
#547500000
1!
b11001 +
#548000000
0!
#548500000
1!
0(
#549000000
0!
#549500000
b11001 %
1!
b11001 $
#550000000
0!
#550500000
1&
1!
#551000000
0!
#551500000
1'
1!
#552000000
0!
#552500000
0&
b110010 %
b1 #
0'
1!
#553000000
0!
#553500000
1&
1!
#554000000
0!
#554500000
1'
1!
#555000000
0!
#555500000
0&
b1100100 %
b10 #
0'
1!
#556000000
0!
#556500000
1&
1!
#557000000
0!
#557500000
1'
1!
#558000000
0!
#558500000
0&
b11001000 %
b11 #
0'
1!
#559000000
0!
#559500000
1&
1!
#560000000
0!
#560500000
1'
1!
#561000000
0!
#561500000
0&
b110010000 %
b100 #
0'
1!
#562000000
0!
#562500000
b1001010000 %
1&
1!
#563000000
0!
#563500000
1'
1!
#564000000
0!
#564500000
0&
b10010100000 %
b101 #
0'
1!
#565000000
0!
#565500000
1&
1!
#566000000
0!
#566500000
1'
1!
#567000000
0!
#567500000
0&
b100101000000 %
b110 #
0'
1!
#568000000
0!
#568500000
b101 )
b0 #
1!
1(
#569000000
0!
#569500000
1!
b11010 +
#570000000
0!
#570500000
1!
0(
#571000000
0!
#571500000
b11010 %
1!
b11010 $
#572000000
0!
#572500000
1&
1!
#573000000
0!
#573500000
1'
1!
#574000000
0!
#574500000
0&
b110100 %
b1 #
0'
1!
#575000000
0!
#575500000
1&
1!
#576000000
0!
#576500000
1'
1!
#577000000
0!
#577500000
0&
b1101000 %
b10 #
0'
1!
#578000000
0!
#578500000
1&
1!
#579000000
0!
#579500000
1'
1!
#580000000
0!
#580500000
0&
b11010000 %
b11 #
0'
1!
#581000000
0!
#581500000
1&
1!
#582000000
0!
#582500000
1'
1!
#583000000
0!
#583500000
0&
b110100000 %
b100 #
0'
1!
#584000000
0!
#584500000
b1001100000 %
1&
1!
#585000000
0!
#585500000
1'
1!
#586000000
0!
#586500000
0&
b10011000000 %
b101 #
0'
1!
#587000000
0!
#587500000
1&
1!
#588000000
0!
#588500000
1'
1!
#589000000
0!
#589500000
0&
b100110000000 %
b110 #
0'
1!
#590000000
0!
#590500000
b110 )
b0 #
1!
1(
#591000000
0!
#591500000
1!
b11011 +
#592000000
0!
#592500000
1!
0(
#593000000
0!
#593500000
b11011 %
1!
b11011 $
#594000000
0!
#594500000
1&
1!
#595000000
0!
#595500000
1'
1!
#596000000
0!
#596500000
0&
b110110 %
b1 #
0'
1!
#597000000
0!
#597500000
1&
1!
#598000000
0!
#598500000
1'
1!
#599000000
0!
#599500000
0&
b1101100 %
b10 #
0'
1!
#600000000
0!
#600500000
1&
1!
#601000000
0!
#601500000
1'
1!
#602000000
0!
#602500000
0&
b11011000 %
b11 #
0'
1!
#603000000
0!
#603500000
1&
1!
#604000000
0!
#604500000
1'
1!
#605000000
0!
#605500000
0&
b110110000 %
b100 #
0'
1!
#606000000
0!
#606500000
b1001110000 %
1&
1!
#607000000
0!
