sim/strobe.vcd
$comment Generated by Amaranth $end
$date 2023-11-29 19:42:15.636136 $end
$timescale 1 ps $end
$scope module bench $end
$scope module top $end
$var wire 1 ! clk $end
$var wire 1 " rst $end
$var wire 2 # i $end
$var wire 1 $ counter $end
$var wire 2 % ocnt $end
$var wire 4 & $signal $end
$var wire 8 ' $signal$1 $end
$var wire 4 ( o $end
$var wire 8 ) i0 $end
$var wire 8 * i1 $end
$var wire 8 + i2 $end
$var wire 8 , i3 $end
$scope module onehot $end
$var wire 2 # i $end
$var wire 4 ( o $end
$var wire 1 - n $end
$upscope $end
$upscope $end
$upscope $end
$enddefinitions $end
#0
$dumpvars
0!
0"
b0 #
0$
b0 %
b0 &
b0 '
b1 (
b0 )
b0 *
b0 +
b0 ,
0-
$end
#500000
b1000100 ,
b10001 )
b1 #
b110011 +
b100010 *
b1 %
1!
b1 &
b10 (
#1000000
0!
#1500000
b10 %
b10 #
1!
b10 &
b100010 '
b100 (
#2000000
0!
#2500000
b11 %
b11 #
1!
b100 &
b110011 '
b1000 (
#3000000
0!
#3500000
b0 %
b0 #
1!
b1000 &
b1000100 '
b1 (
#4000000
0!
#4500000
b1 %
b1 #
1!
b1 &
b10001 '
b10 (
#5000000
0!
#5500000
b10 %
b10 #
1!
b10 &
b100010 '
b100 (
#6000000
0!
#6500000
b11 %
b11 #
1!
b100 &
b110011 '
b1000 (
#7000000
0!
#7500000
b0 %
b0 #
1!
b1000 &
b1000100 '
b1 (
#8000000
0!
#8500000
b1 %
b1 #
1!
b1 &
b10001 '
b10 (
#9000000
0!
#9500000
b10 %
b10 #
1!
b10 &
b100010 '
b100 (
#10000000
0!
#10500000
b11 %
b11 #
1!
b100 &
b110011 '
b1000 (
#11000000
0!
#11500000
b0 %
b0 #
1!
b1000 &
b1000100 '
b1 (
#12000000
0!
#12500000
b1 %
b1 #
1!
b1 &
b10001 '
b10 (
#13000000
0!
#13500000
b10 %
b10 #
1!
b10 &
b100010 '
b100 (
#14000000
0!
#14500000
b11 %
b11 #
1!
b100 &
b110011 '
b1000 (
#15000000
0!
#15500000
b0 %
b0 #
1!
b1000 &
b1000100 '
b1 (
#16000000
0!
#16500000
b1 %
b1 #
1!
b1 &
b10001 '
b10 (
#17000000
0!
#17500000
b10 %
b10 #
1!
b10 &
b100010 '
b100 (
#18000000
0!
#18500000
b11 %
b11 #
1!
b100 &
b110011 '
b1000 (
#19000000
0!
#19500000
b0 %
b0 #
1!
b1000 &
b1000100 '
b1 (
#20000000
0!
#20500000
b1 %
b1 #
1!
b1 &
b10001 '
b10 (
#21000000
0!
#21500000
b10 %
b10 #
1!
b10 &
b100010 '
b100 (
#22000000
0!
#22500000
b11 %
b11 #
1!
b100 &
b110011 '
b1000 (
#23000000
0!
#23500000
b0 %
b0 #
1!
b1000 &
b1000100 '
b1 (
#24000000
0!
#24500000
b1 %
b1 #
1!
b1 &
b10001 '
b10 (
#25000000
0!
#25500000
b10 %
b10 #
1!
b10 &
b100010 '
b100 (
#26000000
0!
#26500000
b11 %
b11 #
1!
b100 &
b110011 '
b1000 (
#27000000
0!
#27500000
b0 %
b0 #
1!
b1000 &
b1000100 '
b1 (
#28000000
0!
#28500000
b1 %
b1 #
1!
b1 &
b10001 '
b10 (
#29000000
0!
#29500000
b10 %
b10 #
1!
b10 &
b100010 '
b100 (
#30000000
0!
#30500000
b11 %
b11 #
1!
b100 &
b110011 '
b1000 (
#31000000
0!
#31500000
b0 %
b0 #
1!
b1000 &
b1000100 '
b1 (
#32000000
0!
#32500000
b1 %
b1 #
1!
b1 &
b10001 '
b10 (
#33000000
0!
#33500000
b10 %
b10 #
1!
b10 &
b100010 '
b100 (
#34000000
0!
#34500000
b11 %
b11 #
1!
b100 &
b110011 '
b1000 (
#35000000
0!
#35500000
b0 %
b0 #
1!
b1000 &
b1000100 '
b1 (
#36000000
0!
#36500000
b1 %
b1 #
1!
b1 &
b10001 '
b10 (
#37000000
0!
#37500000
b10 %
b10 #
1!
b10 &
b100010 '
b100 (
#38000000
0!
#38500000
b11 %
b11 #
1!
b100 &
b110011 '
b1000 (
#39000000
0!
#39500000
b0 %
b0 #
1!
b1000 &
b1000100 '
b1 (
#40000000
0!
#40500000
b1 %
b1 #
1!
b1 &
b10001 '
b10 (
#41000000
0!
#41500000
b10 %
b10 #
1!
b10 &
b100010 '
b100 (
#42000000
0!
#42500000
b11 %
b11 #
1!
b100 &
b110011 '
b1000 (
#43000000
0!
#43500000
b0 %
b0 #
1!
b1000 &
b1000100 '
b1 (
#44000000
0!
#44500000
b1 %
b1 #
1!
b1 &
b10001 '
b10 (
#45000000
0!
#45500000
b10 %
b10 #
1!
b10 &
b100010 '
b100 (
#46000000
0!
#46500000
b11 %
b11 #
1!
b100 &
b110011 '
b1000 (
#47000000
0!
#47500000
b0 %
b0 #
1!
b1000 &
b1000100 '
b1 (
#48000000
0!
#48500000
b1 %
b1 #
1!
b1 &
b10001 '
b10 (
#49000000
0!
#49500000
b10 %
b10 #
1!
b10 &
b100010 '
b100 (
#50000000
0!
#50500000
b11 %
b11 #
1!
b100 &
b110011 '
b1000 (
#51000000
0!
#51500000
b0 %
b0 #
1!
b1000 &
b1000100 '
b1 (
#52000000
0!
#52500000
b1 %
b1 #
1!
b1 &
b10001 '
b10 (
#53000000
0!
#53500000
b10 %
b10 #
1!
b10 &
b100010 '
b100 (
#54000000
0!
#54500000
b11 %
b11 #
1!
b100 &
b110011 '
b1000 (
#55000000
0!
#55500000
b0 %
b0 #
1!
b1000 &
b1000100 '
b1 (
#56000000
0!
#56500000
b1 %
b1 #
1!
b1 &
b10001 '
b10 (
#57000000
0!
#57500000
b10 %
b10 #
1!
b10 &
b100010 '
b100 (
#58000000
0!
#58500000
b11 %
b11 #
1!
b100 &
b110011 '
b1000 (
#59000000
0!
#59500000
b0 %
b0 #
1!
b1000 &
b1000100 '
b1 (
#60000000
0!
#60500000
b1 %
b1 #
1!
b1 &
b10001 '
b10 (
#61000000
0!
#61500000
b10 %
b10 #
1!
b10 &
b100010 '
b100 (
#62000000
0!
#62500000
b11 %
b11 #
1!
b100 &
b110011 '
b1000 (
#63000000
0!
#63500000
b0 %
b0 #
1!
b1000 &
b1000100 '
b1 (
#64000000
0!
#64500000
b1 %
b1 #
1!
b1 &
b10001 '
b10 (
#65000000
0!
#65500000
b10 %
b10 #
1!
b10 &
b100010 '
b100 (
#66000000
0!
#66500000
b11 %
b11 #
1!
b100 &
b110011 '
b1000 (
#67000000
0!
#67500000
b0 %
b0 #
1!
b1000 &
b1000100 '
b1 (
#68000000
0!
#68500000
b1 %
b1 #
1!
b1 &
b10001 '
b10 (
#69000000
0!
#69500000
b10 %
b10 #
1!
b10 &
b100010 '
b100 (
#70000000
0!
#70500000
b11 %
b11 #
1!
b100 &
b110011 '
b1000 (
#71000000
0!
#71500000
b0 %
b0 #
1!
b1000 &
b1000100 '
b1 (
#72000000
0!
#72500000
b1 %
b1 #
1!
b1 &
b10001 '
b10 (
#73000000
0!
#73500000
b10 %
b10 #
1!
b10 &
b100010 '
b100 (
#74000000
0!
#74500000
b11 %
b11 #
1!
b100 &
b110011 '
b1000 (
#75000000
0!
#75500000
b0 %
b0 #
1!
b1000 &
b1000100 '
b1 (
#76000000
0!
#76500000
b1 %
b1 #
1!
b1 &
b10001 '
b10 (
#77000000
0!
#77500000
b10 %
b10 #
1!
b10 &
b100010 '
b100 (
#78000000
0!
#78500000
b11 %
b11 #
1!
b100 &
b110011 '
b1000 (
#79000000
0!
#79500000
b0 %
b0 #
1!
b1000 &
b1000100 '
b1 (
#80000000
0!
#80500000
b1 %
b1 #
1!
b1 &
b10001 '
b10 (
#81000000
0!
#81500000
b10 %
b10 #
1!
b10 &
b100010 '
b100 (
#82000000
0!
#82500000
b11 %
b11 #
1!
b100 &
b110011 '
b1000 (
#83000000
0!
#83500000
b0 %
b0 #
1!
b1000 &
b1000100 '
b1 (
#84000000
0!
#84500000
b1 %
b1 #
1!
b1 &
b10001 '
b10 (
#85000000
0!
#85500000
b10 %
b10 #
1!
b10 &
b100010 '
b100 (
#86000000
0!
#86500000
b11 %
b11 #
1!
b100 &
b110011 '
b1000 (
#87000000
0!
#87500000
b0 %
b0 #
1!
b1000 &
b1000100 '
b1 (
#88000000
0!
#88500000
b1 %
b1 #
1!
b1 &
b10001 '
b10 (
#89000000
0!
#89500000
b10 %
b10 #
1!
b10 &
b100010 '
b100 (
#90000000
0!
#90500000
b11 %
b11 #
1!
b100 &
b110011 '
b1000 (
#91000000
0!
#91500000
b0 %
b0 #
1!
b1000 &
b1000100 '
b1 (
#92000000
0!
#92500000
b1 %
b1 #
1!
b1 &
b10001 '
b10 (
#93000000
0!
#93500000
b10 %
b10 #
1!
b10 &
b100010 '
b100 (
#94000000
0!
#94500000
b11 %
b11 #
1!
b100 &
b110011 '
b1000 (
#95000000
0!
#95500000
b0 %
b0 #
1!
b1000 &
b1000100 '
b1 (
#96000000
0!
#96500000
b1 %
b1 #
1!
b1 &
b10001 '
b10 (
#97000000
0!
#97500000
b10 %
b10 #
1!
b10 &
b100010 '
b100 (
#98000000
0!
#98500000
b11 %
b11 #
1!
b100 &
b110011 '
b1000 (
#99000000
0!
#99500000
b0 %
b0 #
1!
b1000 &
b1000100 '
b1 (
#100000000
0!
#100500000
b1 %
b1 #
1!
b1 &
b10001 '
b10 (
b10011001 ,
b1100110 )
b1110111 *
b10001000 +
#101000000
0!
#101500000
b10 %
b10 #
1!
b10 &
b1110111 '
b100 (
#102000000
0!
#102500000
b11 %
b11 #
1!
b100 &
b10001000 '
b1000 (
#103000000
0!
#103500000
b0 %
b0 #
1!
b1000 &
b10011001 '
b1 (
#104000000
0!
#104500000
b1 %
b1 #
1!
b1 &
b1100110 '
b10 (
#105000000
0!
#105500000
b10 %
b10 #
1!
b10 &
b1110111 '
b100 (
#106000000
0!
#106500000
b11 %
b11 #
1!
b100 &
b10001000 '
b1000 (
#107000000
0!
#107500000
b0 %
b0 #
1!
b1000 &
b10011001 '
b1 (
#108000000
0!
#108500000
b1 %
b1 #
1!
b1 &
b1100110 '
b10 (
#109000000
0!
#109500000
b10 %
b10 #
1!
b10 &
b1110111 '
b100 (
#110000000
0!
#110500000
b11 %
b11 #
1!
b100 &
b10001000 '
b1000 (
#111000000
0!
#111500000
b0 %
b0 #
1!
b1000 &
b10011001 '
b1 (
#112000000
0!
#112500000
b1 %
b1 #
1!
b1 &
b1100110 '
b10 (
#113000000
0!
#113500000
b10 %
b10 #
1!
b10 &
b1110111 '
b100 (
#114000000
0!
#114500000
b11 %
b11 #
1!
b100 &
b10001000 '
b1000 (
#115000000
0!
#115500000
b0 %
b0 #
1!
b1000 &
b10011001 '
b1 (
#116000000
0!
#116500000
b1 %
b1 #
1!
b1 &
b1100110 '
b10 (
#117000000
0!
#117500000
b10 %
b10 #
1!
b10 &
b1110111 '
b100 (
#118000000
0!
#118500000
b11 %
b11 #
1!
b100 &
b10001000 '
b1000 (
#119000000
0!
#119500000
b0 %
b0 #
1!
b1000 &
b10011001 '
b1 (
#120000000
0!
#120500000
b1 %
b1 #
1!
b1 &
b1100110 '
b10 (
#121000000
0!
#121500000
b10 %
b10 #
1!
b10 &
b1110111 '
b100 (
#122000000
0!
#122500000
b11 %
b11 #
1!
b100 &
b10001000 '
b1000 (
#123000000
0!
#123500000
b0 %
b0 #
1!
b1000 &
b10011001 '
b1 (
#124000000
0!
#124500000
b1 %
b1 #
1!
b1 &
b1100110 '
b10 (
#125000000
0!
#125500000
b10 %
b10 #
1!
b10 &
b1110111 '
b100 (
#126000000
0!
#126500000
b11 %
b11 #
1!
b100 &
b10001000 '
b1000 (
#127000000
0!
#127500000
b0 %
b0 #
1!
b1000 &
b10011001 '
b1 (
#128000000
0!
#128500000
b1 %
b1 #
1!
b1 &
b1100110 '
b10 (
#129000000
0!
#129500000
b10 %
b10 #
1!
b10 &
b1110111 '
b100 (
#130000000
0!
#130500000
b11 %
b11 #
1!
b100 &
b10001000 '
b1000 (
#131000000
0!
#131500000
b0 %
b0 #
1!
b1000 &
b10011001 '
b1 (
#132000000
0!
#132500000
b1 %
b1 #
1!
b1 &
b1100110 '
b10 (
#133000000
0!
#133500000
b10 %
b10 #
1!
b10 &
b1110111 '
b100 (
#134000000
0!
#134500000
b11 %
b11 #
1!
b100 &
b10001000 '
b1000 (
#135000000
0!
#135500000
b0 %
b0 #
1!
b1000 &
b10011001 '
b1 (
#136000000
0!
#136500000
b1 %
b1 #
1!
b1 &
b1100110 '
b10 (
#137000000
0!
#137500000
b10 %
b10 #
1!
b10 &
b1110111 '
b100 (
#138000000
0!
#138500000
b11 %
b11 #
1!
b100 &
b10001000 '
b1000 (
#139000000
0!
#139500000
b0 %
b0 #
1!
b1000 &
b10011001 '
b1 (
#140000000
0!
#140500000
b1 %
b1 #
1!
b1 &
b1100110 '
b10 (
#141000000
0!
#141500000
b10 %
b10 #
1!
b10 &
b1110111 '
b100 (
#142000000
0!
#142500000
b11 %
b11 #
1!
b100 &
b10001000 '
b1000 (
#143000000
0!
#143500000
b0 %
b0 #
1!
b1000 &
b10011001 '
b1 (
#144000000
0!
#144500000
b1 %
b1 #
1!
b1 &
b1100110 '
b10 (
#145000000
0!
#145500000
b10 %
b10 #
1!
b10 &
b1110111 '
b100 (
#146000000
0!
#146500000
b11 %
b11 #
1!
b100 &
b10001000 '
b1000 (
#147000000
0!
#147500000
b0 %
b0 #
1!
b1000 &
b10011001 '
b1 (
#148000000
0!
#148500000
b1 %
b1 #
1!
b1 &
b1100110 '
b10 (
#149000000
0!
#149500000
b10 %
b10 #
1!
b10 &
b1110111 '
b100 (
#150000000
0!
#150500000
b11 %
b11 #
1!
b100 &
b10001000 '
b1000 (
#151000000
0!
#151500000
b0 %
b0 #
1!
b1000 &
b10011001 '
b1 (
#152000000
0!
#152500000
b1 %
b1 #
1!
b1 &
b1100110 '
b10 (
#153000000
0!
#153500000
b10 %
b10 #
1!
b10 &
b1110111 '
b100 (
#154000000
0!
#154500000
b11 %
b11 #
1!
b100 &
b10001000 '
b1000 (
#155000000
0!
#155500000
b0 %
b0 #
1!
b1000 &
b10011001 '
b1 (
#156000000
0!
#156500000
b1 %
b1 #
1!
b1 &
b1100110 '
b10 (
#157000000
0!
#157500000
b10 %
b10 #
1!
b10 &
b1110111 '
b100 (
#158000000
0!
#158500000
b11 %
b11 #
1!
b100 &
b10001000 '
b1000 (
#159000000
0!
#159500000
b0 %
b0 #
1!
b1000 &
b10011001 '
b1 (
#160000000
0!
#160500000
b1 %
b1 #
1!
b1 &
b1100110 '
b10 (
#161000000
0!
#161500000
b10 %
b10 #
1!
b10 &
b1110111 '
b100 (
#162000000
0!
#162500000
b11 %
b11 #
1!
b100 &
b10001000 '
b1000 (
#163000000
0!
#163500000
b0 %
b0 #
1!
b1000 &
b10011001 '
b1 (
#164000000
0!
#164500000
b1 %
b1 #
1!
b1 &
b1100110 '
b10 (
#165000000
0!
#165500000
b10 %
b10 #
1!
b10 &
b1110111 '
b100 (
#166000000
0!
#166500000
b11 %
b11 #
1!
b100 &
b10001000 '
b1000 (
#167000000
0!
#167500000
b0 %
b0 #
1!
b1000 &
b10011001 '
b1 (
#168000000
0!
#168500000
b1 %
b1 #
1!
b1 &
b1100110 '
b10 (
#169000000
0!
#169500000
b10 %
b10 #
1!
b10 &
b1110111 '
b100 (
#170000000
0!
#170500000
b11 %
b11 #
1!
b100 &
b10001000 '
b1000 (
#171000000
0!
#171500000
b0 %
b0 #
1!
b1000 &
b10011001 '
b1 (
#172000000
0!
#172500000
b1 %
b1 #
1!
b1 &
b1100110 '
b10 (
#173000000
0!
#173500000
b10 %
b10 #
1!
b10 &
b1110111 '
b100 (
#174000000
0!
#174500000
b11 %
b11 #
1!
b100 &
b10001000 '
b1000 (
#175000000
0!
#175500000
b0 %
b0 #
1!
b1000 &
b10011001 '
b1 (
#176000000
0!
#176500000
b1 %
b1 #
1!
b1 &
b1100110 '
b10 (
#177000000
0!
#177500000
b10 %
b10 #
1!
b10 &
b1110111 '
b100 (
#178000000
0!
#178500000
b11 %
b11 #
1!
b100 &
b10001000 '
b1000 (
#179000000
0!
#179500000
b0 %
b0 #
1!
b1000 &
b10011001 '
b1 (
#180000000
0!
#180500000
b1 %
b1 #
1!
b1 &
b1100110 '
b10 (
#181000000
0!
#181500000
b10 %
b10 #
1!
b10 &
b1110111 '
b100 (
#182000000
0!
#182500000
b11 %
b11 #
1!
b100 &
b10001000 '
b1000 (
#183000000
0!
#183500000
b0 %
b0 #
1!
b1000 &
b10011001 '
b1 (
#184000000
0!
#184500000
b1 %
b1 #
1!
b1 &
b1100110 '
b10 (
#185000000
0!
#185500000
b10 %
b10 #
1!
b10 &
b1110111 '
b100 (
#186000000
0!
#186500000
b11 %
b11 #
1!
b100 &
b10001000 '
b1000 (
#187000000
0!
#187500000
b0 %
b0 #
1!
b1000 &
b10011001 '
b1 (
#188000000
0!
#188500000
b1 %
b1 #
1!
b1 &
b1100110 '
b10 (
#189000000
0!
#189500000
b10 %
b10 #
1!
b10 &
b1110111 '
b100 (
#190000000
0!
#190500000
b11 %
b11 #
1!
b100 &
b10001000 '
b1000 (
#191000000
0!
#191500000
b0 %
b0 #
1!
b1000 &
b10011001 '
b1 (
#192000000
0!
#192500000
b1 %
b1 #
1!
b1 &
b1100110 '
b10 (
#193000000
0!
#193500000
b10 %
b10 #
1!
b10 &
b1110111 '
b100 (
#194000000
0!
#194500000
b11 %
b11 #
1!
b100 &
b10001000 '
b1000 (
#195000000
0!
#195500000
b0 %
b0 #
1!
b1000 &
b10011001 '
b1 (
#196000000
0!
#196500000
b1 %
b1 #
1!
b1 &
b1100110 '
b10 (
#197000000
0!
#197500000
b10 %
b10 #
1!
b10 &
b1110111 '
b100 (
#198000000
0!
#198500000
b11 %
b11 #
1!
b100 &
b10001000 '
b1000 (
#199000000
0!
#199500000
b0 %
b0 #
1!
b1000 &
b10011001 '
b1 (
#200000000
0!
#200500000
b1 %
b1 #
1!
b1 &
b1100110 '
b10 (
