spi/spi.vcd
$comment Generated by Amaranth $end
$date 2023-07-05 19:52:53.907586 $end
$timescale 1 ps $end
$scope module bench $end
$scope module top $end
$var wire 1 ! clk $end
$var wire 1 " rst $end
$var wire 16 # buffer $end
$var wire 4 $ bytecounter $end
$var wire 16 % data_r_data $end
$var wire 1 & scl $end
$var wire 2 ' periphclock $end
$var wire 1 ( copi $end
$var wire 1 ) dc $end
$var wire 2 * data_r_addr $end
$scope module r $end
$var wire 1 ! clk $end
$var wire 1 " rst $end
$var wire 16 % data_r_data $end
$var wire 2 * data_r_addr $end
$var wire 2 + latch_addr $end
$var wire 16 , memory(0) $end
$var wire 16 - memory(1) $end
$var wire 16 . memory(2) $end
$var wire 16 / memory(3) $end
$upscope $end
$upscope $end
$upscope $end
$enddefinitions $end
#0
$dumpvars
0!
0"
b0 #
b1111 $
b1010101010101010 %
0&
b0 '
0(
0)
b0 *
b0 +
b1010101010101010 ,
b1111111111111111 -
b1101111010101101 .
b1011111011101111 /
$end
#500000
1!
b1 '
#1000000
0!
#1500000
1!
b10 '
#2000000
0!
#2500000
1!
b11 '
#3000000
0!
#3500000
1!
1&
b0 '
#4000000
0!
#4500000
1!
b1 '
#5000000
0!
#5500000
1!
b10 '
#6000000
0!
#6500000
1!
b11 '
#7000000
0!
#7500000
1!
1)
b0 '
b0 $
0&
b1 *
#8000000
0!
#8500000
1!
b1010101010101010 #
b1 '
b1111111111111111 %
b1 +
#9000000
0!
#9500000
1!
b1111111111111111 #
b10 '
#10000000
0!
#10500000
1!
b11 '
#11000000
0!
#11500000
1!
1&
b0 '
#12000000
0!
#12500000
1!
b1 '
#13000000
0!
#13500000
1!
b10 '
#14000000
0!
#14500000
1!
b11 '
#15000000
0!
#15500000
1!
b111111111111111 #
0)
b0 '
b1 $
0&
1(
#16000000
0!
#16500000
1!
b1 '
#17000000
0!
#17500000
1!
b10 '
#18000000
0!
#18500000
1!
b11 '
#19000000
0!
#19500000
1!
1&
b0 '
#20000000
0!
#20500000
1!
b1 '
#21000000
0!
#21500000
1!
b10 '
#22000000
0!
#22500000
1!
b11 '
#23000000
0!
#23500000
1!
b11111111111111 #
b0 '
b10 $
0&
#24000000
0!
#24500000
1!
b1 '
#25000000
0!
#25500000
1!
b10 '
#26000000
0!
#26500000
1!
b11 '
#27000000
0!
#27500000
1!
1&
b0 '
#28000000
0!
#28500000
1!
b1 '
#29000000
0!
#29500000
1!
b10 '
#30000000
0!
#30500000
1!
b11 '
#31000000
0!
#31500000
1!
b1111111111111 #
b0 '
b11 $
0&
#32000000
0!
#32500000
1!
b1 '
#33000000
0!
#33500000
1!
b10 '
#34000000
0!
#34500000
1!
b11 '
#35000000
0!
#35500000
1!
1&
b0 '
#36000000
0!
#36500000
1!
b1 '
#37000000
0!
#37500000
1!
b10 '
#38000000
0!
#38500000
1!
b11 '
#39000000
0!
#39500000
1!
b111111111111 #
b0 '
b100 $
0&
#40000000
0!
#40500000
1!
b1 '
#41000000
0!
#41500000
1!
b10 '
#42000000
0!
#42500000
1!
b11 '
#43000000
0!
#43500000
1!
1&
b0 '
#44000000
0!
#44500000
1!
b1 '
#45000000
0!
#45500000
1!
b10 '
#46000000
0!
#46500000
1!
b11 '
#47000000
0!
#47500000
1!
b11111111111 #
b0 '
b101 $
0&
#48000000
0!
#48500000
1!
b1 '
#49000000
0!
#49500000
1!
b10 '
#50000000
0!
#50500000
1!
b11 '
#51000000
0!
#51500000
1!
1&
b0 '
#52000000
0!
#52500000
1!
b1 '
#53000000
0!
#53500000
1!
b10 '
#54000000
0!
#54500000
1!
b11 '
#55000000
0!
#55500000
1!
b1111111111 #
b0 '
b110 $
0&
#56000000
0!
#56500000
1!
b1 '
#57000000
0!
#57500000
1!
b10 '
#58000000
0!
#58500000
1!
b11 '
#59000000
0!
#59500000
1!
1&
b0 '
#60000000
0!
#60500000
1!
b1 '
#61000000
0!
#61500000
1!
b10 '
#62000000
0!
#62500000
1!
b11 '
#63000000
0!
#63500000
1!
b111111111 #
b0 '
b111 $
0&
#64000000
0!
#64500000
1!
b1 '
#65000000
0!
#65500000
1!
b10 '
#66000000
0!
#66500000
1!
b11 '
#67000000
0!
#67500000
1!
1&
b0 '
#68000000
0!
#68500000
1!
b1 '
#69000000
0!
#69500000
1!
b10 '
#70000000
0!
#70500000
1!
b11 '
#71000000
0!
#71500000
1!
b11111111 #
1)
b0 '
b1000 $
0&
#72000000
0!
#72500000
1!
b1 '
#73000000
0!
#73500000
1!
b10 '
#74000000
0!
#74500000
1!
b11 '
#75000000
0!
#75500000
1!
1&
b0 '
#76000000
0!
#76500000
1!
b1 '
#77000000
0!
#77500000
1!
b10 '
#78000000
0!
#78500000
1!
b11 '
#79000000
0!
#79500000
1!
b1111111 #
0)
b0 '
b1001 $
0&
#80000000
0!
#80500000
1!
b1 '
#81000000
0!
#81500000
1!
b10 '
#82000000
0!
#82500000
1!
b11 '
#83000000
0!
#83500000
1!
1&
b0 '
#84000000
0!
#84500000
1!
b1 '
#85000000
0!
#85500000
1!
b10 '
#86000000
0!
#86500000
1!
b11 '
#87000000
0!
#87500000
1!
b111111 #
b0 '
b1010 $
0&
#88000000
0!
#88500000
1!
b1 '
#89000000
0!
#89500000
1!
b10 '
#90000000
0!
#90500000
1!
b11 '
#91000000
0!
#91500000
1!
1&
b0 '
#92000000
0!
#92500000
1!
b1 '
#93000000
0!
#93500000
1!
b10 '
#94000000
0!
#94500000
1!
b11 '
#95000000
0!
#95500000
1!
b11111 #
b0 '
b1011 $
0&
#96000000
0!
#96500000
1!
b1 '
#97000000
0!
#97500000
1!
b10 '
#98000000
0!
#98500000
1!
b11 '
#99000000
0!
#99500000
1!
1&
b0 '
#100000000
0!
#100500000
1!
b1 '
#101000000
0!
#101500000
1!
b10 '
#102000000
0!
#102500000
1!
b11 '
#103000000
0!
#103500000
1!
b1111 #
b0 '
b1100 $
0&
#104000000
0!
#104500000
1!
b1 '
#105000000
0!
#105500000
1!
b10 '
#106000000
0!
#106500000
1!
b11 '
#107000000
0!
#107500000
1!
1&
b0 '
#108000000
0!
#108500000
1!
b1 '
#109000000
0!
#109500000
1!
b10 '
#110000000
0!
#110500000
1!
b11 '
#111000000
0!
#111500000
1!
b111 #
b0 '
b1101 $
0&
#112000000
0!
#112500000
1!
b1 '
#113000000
0!
#113500000
1!
b10 '
#114000000
0!
#114500000
1!
b11 '
#115000000
0!
#115500000
1!
1&
b0 '
#116000000
0!
#116500000
1!
b1 '
#117000000
0!
#117500000
1!
b10 '
#118000000
0!
#118500000
1!
b11 '
#119000000
0!
#119500000
1!
b11 #
b0 '
b1110 $
0&
#120000000
0!
#120500000
1!
b1 '
#121000000
0!
#121500000
1!
b10 '
#122000000
0!
#122500000
1!
b11 '
#123000000
0!
#123500000
1!
1&
b0 '
#124000000
0!
#124500000
1!
b1 '
#125000000
0!
#125500000
1!
b10 '
#126000000
0!
#126500000
1!
b11 '
#127000000
0!
#127500000
1!
b1 #
b0 '
b1111 $
0&
#128000000
0!
#128500000
1!
b1 '
#129000000
0!
#129500000
1!
b10 '
#130000000
0!
#130500000
1!
b11 '
#131000000
0!
#131500000
1!
1&
b0 '
#132000000
0!
#132500000
1!
b1 '
#133000000
0!
#133500000
1!
b10 '
#134000000
0!
#134500000
1!
b11 '
#135000000
0!
#135500000
1!
b0 #
1)
b0 '
b0 $
0&
b10 *
#136000000
0!
#136500000
1!
b1111111111111111 #
b1 '
b1101111010101101 %
b10 +
#137000000
0!
#137500000
1!
b1101111010101101 #
b10 '
#138000000
0!
#138500000
1!
b11 '
#139000000
0!
#139500000
1!
1&
b0 '
#140000000
0!
#140500000
1!
b1 '
#141000000
0!
#141500000
1!
b10 '
#142000000
0!
#142500000
1!
b11 '
#143000000
0!
#143500000
1!
b110111101010110 #
0)
b0 '
b1 $
0&
#144000000
0!
#144500000
1!
b1 '
#145000000
0!
#145500000
1!
b10 '
#146000000
0!
#146500000
1!
b11 '
#147000000
0!
#147500000
1!
1&
b0 '
#148000000
0!
#148500000
1!
b1 '
#149000000
0!
#149500000
1!
b10 '
#150000000
0!
#150500000
1!
b11 '
