ili9341/ili9341.vcd
$comment Generated by Amaranth $end
$date 2023-08-28 10:09:55.380026 $end
$timescale 1 ps $end
$scope module bench $end
$scope module top $end
$var wire 1 ! clk $end
$var wire 1 " rst $end
$var wire 16 # buffer $end
$var wire 4 $ bytecounter $end
$var wire 16 % data_r_data $end
$var wire 1 & scl $end
$var wire 1 ' periphclock $end
$var wire 1 ( copi $end
$var wire 1 ) dc $end
$var wire 2 * data_r_addr $end
$scope module r $end
$var wire 1 ! clk $end
$var wire 1 " rst $end
$var wire 16 % data_r_data $end
$var wire 2 * data_r_addr $end
$var wire 2 + latch_addr $end
$var wire 16 , memory(0) $end
$var wire 16 - memory(1) $end
$var wire 16 . memory(2) $end
$var wire 16 / memory(3) $end
$upscope $end
$upscope $end
$upscope $end
$enddefinitions $end
#0
$dumpvars
0!
0"
b0 #
b0 $
b1010101010101010 %
0&
0'
0(
0)
b0 *
b0 +
b1010101010101010 ,
b1111111111111111 -
b1101111010101101 .
b1011111011101111 /
$end
#500000
1!
1'
b1010101010101010 #
#1000000
0!
#1500000
1&
1!
0'
#2000000
0!
#2500000
1!
1'
#3000000
0!
#3500000
0&
1!
b101010101010101 #
0'
b1 $
#4000000
0!
#4500000
1!
1'
#5000000
0!
#5500000
1&
1!
0'
#6000000
0!
#6500000
1!
1'
#7000000
0!
#7500000
0&
1!
1(
b10101010101010 #
0'
b10 $
#8000000
0!
#8500000
1!
1'
#9000000
0!
#9500000
1&
1!
0'
#10000000
0!
#10500000
1!
1'
#11000000
0!
#11500000
0&
1!
0(
b1010101010101 #
0'
b11 $
#12000000
0!
#12500000
1!
1'
#13000000
0!
#13500000
1&
1!
0'
#14000000
0!
#14500000
1!
1'
#15000000
0!
#15500000
0&
1!
1(
b101010101010 #
0'
b100 $
#16000000
0!
#16500000
1!
1'
#17000000
0!
#17500000
1&
1!
0'
#18000000
0!
#18500000
1!
1'
#19000000
0!
#19500000
0&
1!
0(
b10101010101 #
0'
b101 $
#20000000
0!
#20500000
1!
1'
#21000000
0!
#21500000
1&
1!
0'
#22000000
0!
#22500000
1!
1'
#23000000
0!
#23500000
0&
1!
1(
b1010101010 #
0'
b110 $
#24000000
0!
#24500000
1!
1'
#25000000
0!
#25500000
1&
1!
0'
#26000000
0!
#26500000
1!
1'
#27000000
0!
#27500000
0&
1!
0(
b101010101 #
0'
b111 $
#28000000
0!
#28500000
1!
1'
#29000000
0!
#29500000
1&
1!
0'
#30000000
0!
#30500000
1!
1'
#31000000
0!
#31500000
0&
1!
1(
b10101010 #
1)
0'
b1000 $
#32000000
0!
#32500000
1!
1'
#33000000
0!
#33500000
1&
1!
0'
#34000000
0!
#34500000
1!
1'
#35000000
0!
#35500000
0&
1!
0(
b1010101 #
0)
0'
b1001 $
#36000000
0!
#36500000
1!
1'
#37000000
0!
#37500000
1&
1!
0'
#38000000
0!
#38500000
1!
1'
#39000000
0!
#39500000
0&
1!
1(
b101010 #
0'
b1010 $
#40000000
0!
#40500000
1!
1'
#41000000
0!
#41500000
1&
1!
0'
#42000000
0!
#42500000
1!
1'
#43000000
0!
#43500000
0&
1!
0(
b10101 #
0'
b1011 $
#44000000
0!
#44500000
1!
1'
#45000000
0!
#45500000
1&
1!
0'
#46000000
0!
#46500000
1!
1'
#47000000
0!
#47500000
0&
1!
1(
b1010 #
0'
b1100 $
#48000000
0!
#48500000
1!
1'
#49000000
0!
#49500000
1&
1!
0'
#50000000
0!
#50500000
1!
1'
#51000000
0!
#51500000
0&
1!
0(
b101 #
0'
b1101 $
#52000000
0!
#52500000
1!
1'
#53000000
0!
#53500000
1&
1!
0'
#54000000
0!
#54500000
1!
1'
#55000000
0!
#55500000
0&
1!
1(
b10 #
0'
b1110 $
#56000000
0!
#56500000
1!
1'
#57000000
0!
#57500000
1&
1!
0'
#58000000
0!
#58500000
1!
1'
#59000000
0!
#59500000
0&
1!
0(
b1 #
0'
b1111 $
#60000000
0!
#60500000
1!
1'
#61000000
0!
#61500000
1&
1!
0'
#62000000
0!
#62500000
1!
1'
#63000000
0!
#63500000
0&
1)
0'
1!
b1 *
1(
b0 #
b0 $
#64000000
0!
#64500000
1!
b1 +
b1010101010101010 #
b1111111111111111 %
1'
#65000000
0!
#65500000
1&
1!
0'
b1111111111111111 #
#66000000
0!
#66500000
1!
1'
#67000000
0!
#67500000
0&
1!
b111111111111111 #
0)
0'
b1 $
#68000000
0!
#68500000
1!
1'
#69000000
0!
#69500000
1&
1!
0'
#70000000
0!
#70500000
1!
1'
#71000000
0!
#71500000
0&
1!
b11111111111111 #
0'
b10 $
#72000000
0!
#72500000
1!
1'
#73000000
0!
#73500000
1&
1!
0'
#74000000
0!
#74500000
1!
1'
#75000000
0!
#75500000
0&
1!
b1111111111111 #
0'
b11 $
#76000000
0!
#76500000
1!
1'
#77000000
0!
#77500000
1&
1!
0'
#78000000
0!
#78500000
1!
1'
#79000000
0!
#79500000
0&
1!
b111111111111 #
0'
b100 $
#80000000
0!
#80500000
1!
1'
#81000000
0!
#81500000
1&
1!
0'
#82000000
0!
#82500000
1!
1'
#83000000
0!
#83500000
0&
1!
b11111111111 #
0'
b101 $
#84000000
0!
#84500000
1!
1'
#85000000
0!
#85500000
1&
1!
0'
#86000000
0!
#86500000
1!
1'
#87000000
0!
#87500000
0&
1!
b1111111111 #
0'
b110 $
#88000000
0!
#88500000
1!
1'
#89000000
0!
#89500000
1&
1!
0'
#90000000
0!
#90500000
1!
1'
#91000000
0!
#91500000
0&
1!
b111111111 #
0'
b111 $
#92000000
0!
#92500000
1!
1'
#93000000
0!
#93500000
1&
1!
0'
#94000000
0!
#94500000
1!
1'
#95000000
0!
#95500000
0&
1!
b11111111 #
1)
0'
b1000 $
#96000000
0!
#96500000
1!
1'
#97000000
0!
#97500000
1&
1!
0'
#98000000
0!
#98500000
1!
1'
#99000000
0!
#99500000
0&
1!
b1111111 #
0)
0'
b1001 $
#100000000
0!
#100500000
1!
1'
#101000000
0!
#101500000
1&
1!
0'
#102000000
0!
#102500000
1!
1'
#103000000
0!
#103500000
0&
1!
b111111 #
0'
b1010 $
#104000000
0!
#104500000
1!
1'
#105000000
0!
#105500000
1&
1!
0'
#106000000
0!
#106500000
1!
1'
#107000000
0!
#107500000
0&
1!
b11111 #
0'
b1011 $
#108000000
0!
#108500000
1!
1'
#109000000
0!
#109500000
1&
1!
0'
#110000000
0!
#110500000
1!
1'
#111000000
0!
#111500000
0&
1!
b1111 #
0'
b1100 $
#112000000
0!
#112500000
1!
1'
#113000000
0!
#113500000
1&
1!
0'
#114000000
0!
#114500000
1!
1'
#115000000
0!
#115500000
0&
1!
b111 #
0'
b1101 $
#116000000
0!
#116500000
1!
1'
#117000000
0!
#117500000
1&
1!
0'
#118000000
0!
#118500000
1!
1'
#119000000
0!
#119500000
0&
1!
b11 #
0'
b1110 $
#120000000
0!
#120500000
1!
1'
#121000000
0!
#121500000
1&
1!
0'
#122000000
0!
#122500000
1!
1'
#123000000
0!
#123500000
0&
1!
b1 #
0'
b1111 $
#124000000
0!
#124500000
1!
1'
#125000000
0!
#125500000
1&
1!
0'
#126000000
0!
#126500000
1!
1'
#127000000
0!
#127500000
0&
1!
b10 *
b0 #
1)
0'
b0 $
#128000000
0!
#128500000
1!
b10 +
b1111111111111111 #
b1101111010101101 %
1'
#129000000
0!
#129500000
1&
1!
0'
b1101111010101101 #
#130000000
0!
#130500000
1!
1'
#131000000
0!
#131500000
0&
1!
b110111101010110 #
0)
0'
b1 $
#132000000
0!
#132500000
1!
1'
#133000000
0!
#133500000
1&
1!
0'
#134000000
0!
#134500000
1!
1'
#135000000
0!
#135500000
0&
1!
0(
b11011110101011 #
0'
b10 $
#136000000
0!
#136500000
1!
1'
#137000000
0!
#137500000
1&
1!
0'
#138000000
0!
#138500000
1!
1'
#139000000
0!
#139500000
0&
1!
1(
b1101111010101 #
0'
b11 $
#140000000
0!
#140500000
1!
1'
#141000000
0!
#141500000
1&
1!
0'
#142000000
0!
#142500000
1!
1'
#143000000
0!
#143500000
0&
1!
b110111101010 #
0'
b100 $
#144000000
0!
#144500000
1!
1'
#145000000
0!
#145500000
1&
1!
0'
#146000000
0!
#146500000
1!
1'
#147000000
0!
#147500000
0&
1!
0(
b11011110101 #
0'
b101 $
#148000000
0!
#148500000
1!
1'
#149000000
0!
#149500000
1&
1!
0'
#150000000
0!
#150500000
1!
1'
#151000000
0!
#151500000
0&
1!
1(
b1101111010 #
0'
b110 $
#152000000
0!
#152500000
1!
1'
#153000000
0!
#153500000
1&
1!
0'
#154000000
0!
#154500000
1!
1'
#155000000
0!
#155500000
0&
1!
0(
b110111101 #
0'
b111 $
#156000000
0!
#156500000
1!
1'
#157000000
0!
#157500000
1&
1!
0'
#158000000
0!
#158500000
1!
1'
#159000000
0!
#159500000
0&
1!
1(
b11011110 #
1)
0'
b1000 $
#160000000
0!
#160500000
1!
1'
#161000000
0!
#161500000
1&
1!
0'
#162000000
0!
#162500000
1!
1'
#163000000
0!
#163500000
0&
1!
0(
b1101111 #
0)
0'
b1001 $
#164000000
0!
#164500000
1!
1'
#165000000
0!
#165500000
1&
1!
0'
#166000000
0!
#166500000
1!
1'
#167000000
0!
#167500000
0&
1!
1(
b110111 #
0'
b1010 $
#168000000
0!
#168500000
1!
1'
#169000000
0!
#169500000
1&
1!
0'
#170000000
0!
#170500000
1!
1'
#171000000
0!
#171500000
0&
1!
b11011 #
0'
b1011 $
#172000000
0!
#172500000
1!
1'
#173000000
0!
#173500000
1&
1!
0'
#174000000
0!
#174500000
1!
1'
#175000000
0!
#175500000
0&
1!
b1101 #
0'
b1100 $
#176000000
0!
#176500000
1!
1'
#177000000
0!
#177500000
1&
1!
0'
#178000000
0!
#178500000
1!
1'
#179000000
0!
#179500000
0&
1!
b110 #
0'
b1101 $
#180000000
0!
#180500000
1!
1'
#181000000
0!
#181500000
1&
1!
0'
#182000000
0!
#182500000
1!
1'
#183000000
0!
#183500000
0&
1!
0(
b11 #
0'
b1110 $
#184000000
0!
#184500000
1!
1'
#185000000
0!
#185500000
1&
1!
0'
#186000000
0!
#186500000
1!
1'
#187000000
0!
#187500000
0&
1!
1(
b1 #
0'
b1111 $
#188000000
0!
#188500000
1!
1'
#189000000
0!
#189500000
1&
1!
0'
#190000000
0!
#190500000
1!
1'
#191000000
0!
#191500000
0&
1!
b11 *
b0 #
1)
0'
b0 $
#192000000
0!
#192500000
1!
b11 +
b1101111010101101 #
b1011111011101111 %
1'
#193000000
0!
#193500000
1&
1!
0'
b1011111011101111 #
#194000000
0!
#194500000
1!
1'
#195000000
0!
#195500000
0&
1!
b101111101110111 #
0)
0'
b1 $
#196000000
0!
#196500000
1!
1'
#197000000
0!
#197500000
1&
1!
0'
#198000000
0!
#198500000
1!
1'
#199000000
0!
#199500000
0&
1!
b10111110111011 #
0'
b10 $
#200000000
0!
#200500000
1!
1'
#201000000
0!
#201500000
1&
1!
0'
#202000000
0!
#202500000
1!
1'
#203000000
0!
#203500000
0&
1!
b1011111011101 #
0'
b11 $
#204000000
0!
#204500000
1!
1'
#205000000
0!
#205500000
1&
1!
0'
#206000000
0!
#206500000
1!
1'
#207000000
0!
#207500000
0&
1!
b101111101110 #
0'
b100 $
#208000000
0!
#208500000
1!
1'
#209000000
0!
#209500000
1&
1!
0'
#210000000
0!
#210500000
1!
1'
#211000000
0!
#211500000
0&
1!
0(
b10111110111 #
0'
b101 $
#212000000
0!
#212500000
1!
1'
#213000000
0!
#213500000
1&
1!
0'
#214000000
0!
#214500000
1!
1'
#215000000
0!
#215500000
0&
1!
1(
b1011111011 #
0'
b110 $
#216000000
0!
#216500000
1!
1'
#217000000
0!
#217500000
1&
1!
0'
#218000000
0!
#218500000
1!
1'
#219000000
0!
#219500000
0&
1!
b101111101 #
0'
b111 $
#220000000
0!
#220500000
1!
1'
#221000000
0!
#221500000
1&
1!
0'
#222000000
0!
#222500000
1!
1'
#223000000
0!
#223500000
0&
1!
b10111110 #
1)
0'
b1000 $
#224000000
0!
#224500000
1!
1'
#225000000
0!
#225500000
1&
1!
0'
#226000000
0!
#226500000
1!
1'
#227000000
0!
#227500000
0&
1!
0(
b1011111 #
0)
0'
b1001 $
#228000000
0!
#228500000
1!
1'
#229000000
0!
#229500000
1&
1!
0'
#230000000
0!
#230500000
1!
1'
#231000000
0!
#231500000
0&
1!
1(
b101111 #
0'
b1010 $
#232000000
0!
#232500000
1!
1'
#233000000
0!
#233500000
1&
1!
0'
#234000000
0!
#234500000
1!
1'
#235000000
0!
#235500000
0&
1!
b10111 #
0'
b1011 $
#236000000
0!
#236500000
1!
1'
#237000000
0!
#237500000
1&
1!
0'
#238000000
0!
#238500000
1!
1'
#239000000
0!
#239500000
0&
1!
b1011 #
0'
b1100 $
